# 
# Keywords:
# 
opti conp molq rfo  
# 
# Options:
# 
title
 Scolecite (Stuckenshmidt 1997), fully hydrated (with revised pots)             
end
cell
  18.377087  18.650857   6.521121  90.067039  90.167666  90.036399
fractional  1   
Si    core 0.0000000 0.0044000 0.0000000 4.00000000 1.00000 0.00000             
Si    core 0.0000419 0.4986783 0.4924743 4.00000000 1.00000 0.00000             
Si    core 0.2488675 0.2527199 0.2437325 4.00000000 1.00000 0.00000             
Si    core 0.2494870 0.7480776 0.7507951 4.00000000 1.00000 0.00000             
Si    core 0.5000910 0.0043910 0.5001556 4.00000000 1.00000 0.00000             
Si    core 0.4985563 0.4992428 0.9885779 4.00000000 1.00000 0.00000             
Si    core 0.7494488 0.2529752 0.7404873 4.00000000 1.00000 0.00000             
Si    core 0.7504706 0.7468627 0.2485294 4.00000000 1.00000 0.00000             
Si    core 0.1532759 0.2107281 0.6153944 4.00000000 1.00000 0.00000             
Si    core 0.1525519 0.7077209 0.1248382 4.00000000 1.00000 0.00000             
Si    core 0.4023056 0.0433433 0.8732309 4.00000000 1.00000 0.00000             
Si    core 0.4028583 0.5404527 0.3602889 4.00000000 1.00000 0.00000             
Si    core 0.6539045 0.2099205 0.1121103 4.00000000 1.00000 0.00000             
Si    core 0.6525675 0.7072141 0.6208681 4.00000000 1.00000 0.00000             
Si    core 0.9024185 0.0435162 0.3729013 4.00000000 1.00000 0.00000             
Si    core 0.9038250 0.5409872 0.8637835 4.00000000 1.00000 0.00000             
Si    core 0.0900916 0.4580979 0.8650514 4.00000000 1.00000 0.00000             
Si    core 0.0872445 0.9579340 0.3735456 4.00000000 1.00000 0.00000             
Si    core 0.3395228 0.2932680 0.6157099 4.00000000 1.00000 0.00000             
Si    core 0.3372382 0.7933501 0.1248540 4.00000000 1.00000 0.00000             
Si    core 0.5891020 0.4566823 0.3617418 4.00000000 1.00000 0.00000             
Si    core 0.5871752 0.9572778 0.8737468 4.00000000 1.00000 0.00000             
Si    core 0.8398119 0.2937946 0.1128972 4.00000000 1.00000 0.00000             
Si    core 0.8374190 0.7933851 0.6227052 4.00000000 1.00000 0.00000             
Al    core 0.0364933 0.0922704 0.6172935 3.00000000 1.00000 0.00000             
Al    core 0.0353028 0.5899328 0.1121355 3.00000000 1.00000 0.00000             
Al    core 0.2853284 0.1618045 0.8626743 3.00000000 1.00000 0.00000             
Al    core 0.2864337 0.6589337 0.3685374 3.00000000 1.00000 0.00000             
Al    core 0.5366934 0.0918753 0.1168840 3.00000000 1.00000 0.00000             
Al    core 0.5350810 0.5890215 0.6079587 3.00000000 1.00000 0.00000             
Al    core 0.7856669 0.1619236 0.3596750 3.00000000 1.00000 0.00000             
Al    core 0.7867212 0.6588545 0.8650976 3.00000000 1.00000 0.00000             
Al    core 0.2075820 0.3411490 0.8623604 3.00000000 1.00000 0.00000             
Al    core 0.2043522 0.8388088 0.3723451 3.00000000 1.00000 0.00000             
Al    core 0.4576346 0.4095160 0.6064553 3.00000000 1.00000 0.00000             
Al    core 0.4542978 0.9124467 0.1196965 3.00000000 1.00000 0.00000             
Al    core 0.7074976 0.3408972 0.3585375 3.00000000 1.00000 0.00000             
Al    core 0.7043375 0.8381534 0.8683501 3.00000000 1.00000 0.00000             
Al    core 0.9579631 0.4104138 0.1101932 3.00000000 1.00000 0.00000             
Al    core 0.9543881 0.9127721 0.6193118 3.00000000 1.00000 0.00000             
Ca    core 0.2321259 0.0156230 0.6112083 2.00000000 1.00000 0.00000             
Ca    core 0.2255652 0.5166506 0.1308306 2.00000000 1.00000 0.00000             
Ca    core 0.4792954 0.2336754 0.8617646 2.00000000 1.00000 0.00000             
Ca    core 0.4821493 0.7349166 0.3581897 2.00000000 1.00000 0.00000             
Ca    core 0.7321478 0.0156448 0.1096242 2.00000000 1.00000 0.00000             
Ca    core 0.7281810 0.5170217 0.6110098 2.00000000 1.00000 0.00000             
Ca    core 0.9790326 0.2336786 0.3617398 2.00000000 1.00000 0.00000             
Ca    core 0.9826819 0.7362385 0.8605104 2.00000000 1.00000 0.00000             
O2    core 0.0175697 0.0755350 0.8721946 0.86902000 1.00000 0.00000             
O2    core 0.0155139 0.5700735 0.3630633 0.86902000 1.00000 0.00000             
O2    core 0.2640224 0.1815269 0.1127554 0.86902000 1.00000 0.00000             
O2    core 0.2662173 0.6782718 0.6190923 0.86902000 1.00000 0.00000             
O2    core 0.5182270 0.0754443 0.3723834 0.86902000 1.00000 0.00000             
O2    core 0.5155346 0.5704141 0.8595949 0.86902000 1.00000 0.00000             
O2    core 0.7648806 0.1817397 0.6099678 0.86902000 1.00000 0.00000             
O2    core 0.7681472 0.6757438 0.1202886 0.86902000 1.00000 0.00000             
O2    core 0.2350316 0.3217742 0.1076777 0.86902000 1.00000 0.00000             
O2    core 0.2318402 0.8178623 0.6187557 0.86902000 1.00000 0.00000             
O2    core 0.4849134 0.4306213 0.8508671 0.86902000 1.00000 0.00000             
O2    core 0.4833149 0.9359109 0.3625991 0.86902000 1.00000 0.00000             
O2    core 0.7354782 0.3218529 0.6040519 0.86902000 1.00000 0.00000             
O2    core 0.7336276 0.8153701 0.1114905 0.86902000 1.00000 0.00000             
O2    core 0.9866526 0.4299821 0.3547068 0.86902000 1.00000 0.00000             
O2    core 0.9834119 0.9357697 0.8626613 0.86902000 1.00000 0.00000             
O2    core 0.0721928 0.1782539 0.5839231 0.86902000 1.00000 0.00000             
O2    core 0.0716341 0.6757538 0.0901837 0.86902000 1.00000 0.00000             
O2    core 0.3215623 0.0758022 0.8401096 0.86902000 1.00000 0.00000             
O2    core 0.3213708 0.5725728 0.3278501 0.86902000 1.00000 0.00000             
O2    core 0.5727927 0.1775747 0.0806428 0.86902000 1.00000 0.00000             
O2    core 0.5720801 0.6747295 0.5843989 0.86902000 1.00000 0.00000             
O2    core 0.8218326 0.0759129 0.3386946 0.86902000 1.00000 0.00000             
O2    core 0.8227301 0.5729729 0.8310059 0.86902000 1.00000 0.00000             
O2    core 0.1730599 0.4287395 0.8743130 0.86902000 1.00000 0.00000             
O2    core 0.1680352 0.9249192 0.3820894 0.86902000 1.00000 0.00000             
O2    core 0.4219691 0.3229920 0.6213134 0.86902000 1.00000 0.00000             
O2    core 0.4181744 0.8264024 0.1349788 0.86902000 1.00000 0.00000             
O2    core 0.6718828 0.4274863 0.3668092 0.86902000 1.00000 0.00000             
O2    core 0.6679951 0.9241256 0.8825964 0.86902000 1.00000 0.00000             
O2    core 0.9221928 0.3239889 0.1205764 0.86902000 1.00000 0.00000             
O2    core 0.9181979 0.8267036 0.6333878 0.86902000 1.00000 0.00000             
O2    core 0.0955835 0.0271861 0.5241659 0.86902000 1.00000 0.00000             
O2    core 0.0973329 0.5270180 0.0186588 0.86902000 1.00000 0.00000             
O2    core 0.3469893 0.2245013 0.7688099 0.86902000 1.00000 0.00000             
O2    core 0.3456712 0.7234118 0.2721154 0.86902000 1.00000 0.00000             
O2    core 0.5956548 0.0265862 0.0240366 0.86902000 1.00000 0.00000             
O2    core 0.5961575 0.5255458 0.5151128 0.86902000 1.00000 0.00000             
O2    core 0.8471883 0.2247644 0.2651707 0.86902000 1.00000 0.00000             
O2    core 0.8457693 0.7239803 0.7720373 0.86902000 1.00000 0.00000             
O2    core 0.1482626 0.2755132 0.7748260 0.86902000 1.00000 0.00000             
O2    core 0.1468300 0.7718934 0.2844392 0.86902000 1.00000 0.00000             
O2    core 0.4000140 0.4740788 0.5109002 0.86902000 1.00000 0.00000             
O2    core 0.3962475 0.9783761 0.0296570 0.86902000 1.00000 0.00000             
O2    core 0.6493326 0.2741140 0.2729079 0.86902000 1.00000 0.00000             
O2    core 0.6464057 0.7717266 0.7794650 0.86902000 1.00000 0.00000             
O2    core 0.8995313 0.4768260 0.0244685 0.86902000 1.00000 0.00000             
O2    core 0.8963304 0.9788753 0.5304836 0.86902000 1.00000 0.00000             
O2    core 0.2095367 0.1496792 0.6990855 0.86902000 1.00000 0.00000             
O2    core 0.2088976 0.6463030 0.2084303 0.86902000 1.00000 0.00000             
O2    core 0.4592781 0.1037408 0.9586579 0.86902000 1.00000 0.00000             
O2    core 0.4588539 0.6017209 0.4461533 0.86902000 1.00000 0.00000             
O2    core 0.7101502 0.1487408 0.1955240 0.86902000 1.00000 0.00000             
O2    core 0.7094812 0.6467083 0.7058346 0.86902000 1.00000 0.00000             
O2    core 0.9594060 0.1040779 0.4575449 0.86902000 1.00000 0.00000             
O2    core 0.9599063 0.6023260 0.9479061 0.86902000 1.00000 0.00000             
O2    core 0.0307183 0.4025206 0.9417821 0.86902000 1.00000 0.00000             
O2    core 0.0252822 0.9045670 0.4462019 0.86902000 1.00000 0.00000             
O2    core 0.2797873 0.3484490 0.6934222 0.86902000 1.00000 0.00000             
O2    core 0.2756861 0.8465352 0.2009265 0.86902000 1.00000 0.00000             
O2    core 0.5308944 0.4000188 0.4401166 0.86902000 1.00000 0.00000             
O2    core 0.5252404 0.9039857 0.9467196 0.86902000 1.00000 0.00000             
O2    core 0.7800680 0.3489872 0.1901783 0.86902000 1.00000 0.00000             
O2    core 0.7752771 0.8464923 0.6954392 0.86902000 1.00000 0.00000             
O2    core 0.1785717 0.2392193 0.3915844 0.86902000 1.00000 0.00000             
O2    core 0.1797738 0.7353027 0.9010229 0.86902000 1.00000 0.00000             
O2    core 0.4297556 0.0168091 0.6476988 0.86902000 1.00000 0.00000             
O2    core 0.4276286 0.5146009 0.1322997 0.86902000 1.00000 0.00000             
O2    core 0.6794988 0.2389646 0.8891234 0.86902000 1.00000 0.00000             
O2    core 0.6804323 0.7346987 0.3969823 0.86902000 1.00000 0.00000             
O2    core 0.9297088 0.0163764 0.1478853 0.86902000 1.00000 0.00000             
O2    core 0.9301703 0.5119519 0.6412647 0.86902000 1.00000 0.00000             
O2    core 0.0739131 0.4841661 0.6313410 0.86902000 1.00000 0.00000             
O2    core 0.0725303 0.9846384 0.1373874 0.86902000 1.00000 0.00000             
O2    core 0.3224262 0.2665474 0.3827434 0.86902000 1.00000 0.00000             
O2    core 0.3223328 0.7680968 0.8875099 0.86902000 1.00000 0.00000             
O2    core 0.5712831 0.4838323 0.1301294 0.86902000 1.00000 0.00000             
O2    core 0.5724777 0.9840799 0.6376899 0.86902000 1.00000 0.00000             
O2    core 0.8231400 0.2674514 0.8792810 0.86902000 1.00000 0.00000             
O2    core 0.8230913 0.7670334 0.3857276 0.86902000 1.00000 0.00000             
O1    core 0.0282740 0.7048738 0.5528459 1.25000000 1.00000 0.00000             
H     core 0.0287191 0.6566921 0.4936804 0.40000000 1.00000 0.00000             
H     core 0.0566246 0.7338573 0.4567326 0.40000000 1.00000 0.00000             
O1    core 0.0394221 0.2117361 0.0688492 1.25000000 1.00000 0.00000             
H     core 0.0399170 0.1644511 0.0033669 0.40000000 1.00000 0.00000             
H     core 0.0666517 0.2421010 0.9737098 0.40000000 1.00000 0.00000             
O1    core 0.2772461 0.0470482 0.3027625 1.25000000 1.00000 0.00000             
H     core 0.2774232 0.0952662 0.2440859 0.40000000 1.00000 0.00000             
H     core 0.3044524 0.0179728 0.2041897 0.40000000 1.00000 0.00000             
O1    core 0.5289390 0.7046227 0.0507318 1.25000000 1.00000 0.00000             
H     core 0.5288191 0.6566568 0.9900239 0.40000000 1.00000 0.00000             
H     core 0.5568280 0.7338516 0.9542132 0.40000000 1.00000 0.00000             
O1    core 0.5401762 0.2114466 0.5694052 1.25000000 1.00000 0.00000             
H     core 0.5408951 0.1641383 0.5040980 0.40000000 1.00000 0.00000             
H     core 0.5673476 0.2418759 0.4742653 0.40000000 1.00000 0.00000             
O1    core 0.7773282 0.0470530 0.8010009 1.25000000 1.00000 0.00000             
H     core 0.7772854 0.0952084 0.7418552 0.40000000 1.00000 0.00000             
H     core 0.8049617 0.0180774 0.7031410 0.40000000 1.00000 0.00000             
O1    core 0.7894811 0.5397875 0.3192433 1.25000000 1.00000 0.00000             
H     core 0.7898178 0.5870197 0.2537326 0.40000000 1.00000 0.00000             
H     core 0.8164100 0.5093672 0.2234256 0.40000000 1.00000 0.00000             
O1    core 0.2148402 0.4582287 0.4265441 1.25000000 1.00000 0.00000             
H     core 0.1708616 0.4562819 0.5104141 0.40000000 1.00000 0.00000             
H     core 0.2508985 0.4318909 0.5077492 0.40000000 1.00000 0.00000             
O1    core 0.2037629 0.9605901 0.9201580 1.25000000 1.00000 0.00000             
H     core 0.1660793 0.9739501 0.0184291 0.40000000 1.00000 0.00000             
H     core 0.2347545 0.9275453 0.9979393 0.40000000 1.00000 0.00000             
O1    core 0.4535052 0.7902367 0.6677904 1.25000000 1.00000 0.00000             
H     core 0.4150426 0.7772124 0.7640473 0.40000000 1.00000 0.00000             
H     core 0.4847307 0.8224741 0.7479253 0.40000000 1.00000 0.00000             
O1    core 0.4647256 0.2890765 0.1675799 1.25000000 1.00000 0.00000             
H     core 0.4215794 0.2857245 0.2547202 0.40000000 1.00000 0.00000             
H     core 0.4974872 0.3200625 0.2466320 0.40000000 1.00000 0.00000             
O1    core 0.7137615 0.4614356 0.9161224 1.25000000 1.00000 0.00000             
H     core 0.6703577 0.4649200 0.0022273 0.40000000 1.00000 0.00000             
H     core 0.7458649 0.4298471 0.9949548 0.40000000 1.00000 0.00000             
O1    core 0.7038014 0.9600855 0.4185518 1.25000000 1.00000 0.00000             
H     core 0.6657760 0.9732751 0.5160151 0.40000000 1.00000 0.00000             
H     core 0.7350725 0.9276278 0.4974844 0.40000000 1.00000 0.00000             
O1    core 0.9642969 0.2902233 0.6655234 1.25000000 1.00000 0.00000             
H     core 0.9208073 0.2870825 0.7513753 0.40000000 1.00000 0.00000             
H     core 0.9970097 0.3209114 0.7455963 0.40000000 1.00000 0.00000             
O1    core 0.9542173 0.7914320 0.1689414 1.25000000 1.00000 0.00000             
H     core 0.9161575 0.7781208 0.2660863 0.40000000 1.00000 0.00000             
H     core 0.9856085 0.8236514 0.2486325 0.40000000 1.00000 0.00000             
O1    core 0.0705025 0.8260513 0.8528839 1.25000000 1.00000 0.00000             
H     core 0.0647245 0.8742379 0.9096816 0.40000000 1.00000 0.00000             
H     core 0.1219042 0.8236205 0.8155042 0.40000000 1.00000 0.00000             
O1    core 0.3200070 0.9264316 0.6041209 1.25000000 1.00000 0.00000             
H     core 0.3139708 0.8787716 0.6640753 0.40000000 1.00000 0.00000             
H     core 0.3712492 0.9282100 0.5649514 0.40000000 1.00000 0.00000             
O1    core 0.5700630 0.8251584 0.3534591 1.25000000 1.00000 0.00000             
H     core 0.5640278 0.8732935 0.4104627 0.40000000 1.00000 0.00000             
H     core 0.6214683 0.8229118 0.3160865 0.40000000 1.00000 0.00000             
O1    core 0.8199432 0.9260253 0.1017306 1.25000000 1.00000 0.00000             
H     core 0.8141515 0.8779208 0.1588602 0.40000000 1.00000 0.00000             
H     core 0.8713570 0.9285381 0.0646280 0.40000000 1.00000 0.00000             
O2    shel 0.0170181 0.0693604 0.8700945 -2.8690199 1.00000 0.00000             
O2    shel 0.0152821 0.5642252 0.3608073 -2.8690199 1.00000 0.00000             
O2    shel 0.2639120 0.1873561 0.1107092 -2.8690199 1.00000 0.00000             
O2    shel 0.2657318 0.6846691 0.6170054 -2.8690199 1.00000 0.00000             
O2    shel 0.5175902 0.0692751 0.3702610 -2.8690199 1.00000 0.00000             
O2    shel 0.5151325 0.5645404 0.8571722 -2.8690199 1.00000 0.00000             
O2    shel 0.7647088 0.1875692 0.6078328 -2.8690199 1.00000 0.00000             
O2    shel 0.7675615 0.6819024 0.1182200 -2.8690199 1.00000 0.00000             
O2    shel 0.2347965 0.3154591 0.1067705 -2.8690199 1.00000 0.00000             
O2    shel 0.2321820 0.8118366 0.6178584 -2.8690199 1.00000 0.00000             
O2    shel 0.4846968 0.4368702 0.8503630 -2.8690199 1.00000 0.00000             
O2    shel 0.4834957 0.9417773 0.3626213 -2.8690199 1.00000 0.00000             
O2    shel 0.7352568 0.3154899 0.6033737 -2.8690199 1.00000 0.00000             
O2    shel 0.7338038 0.8094796 0.1114502 -2.8690199 1.00000 0.00000             
O2    shel 0.9863293 0.4363371 0.3542590 -2.8690199 1.00000 0.00000             
O2    shel 0.9835712 0.9416596 0.8626200 -2.8690199 1.00000 0.00000             
O2    shel 0.0772727 0.1769476 0.5868536 -2.8690199 1.00000 0.00000             
O2    shel 0.0767880 0.6743293 0.0929444 -2.8690199 1.00000 0.00000             
O2    shel 0.3267192 0.0771291 0.8427358 -2.8690199 1.00000 0.00000             
O2    shel 0.3262499 0.5737616 0.3308748 -2.8690199 1.00000 0.00000             
O2    shel 0.5778601 0.1762925 0.0837498 -2.8690199 1.00000 0.00000             
O2    shel 0.5772230 0.6734619 0.5874483 -2.8690199 1.00000 0.00000             
O2    shel 0.8270380 0.0772417 0.3413911 -2.8690199 1.00000 0.00000             
O2    shel 0.8278497 0.5742920 0.8341840 -2.8690199 1.00000 0.00000             
O2    shel 0.1674128 0.4273942 0.8746321 -2.8690199 1.00000 0.00000             
O2    shel 0.1623950 0.9238452 0.3822134 -2.8690199 1.00000 0.00000             
O2    shel 0.4162727 0.3243639 0.6217248 -2.8690199 1.00000 0.00000             
O2    shel 0.4126036 0.8275032 0.1346290 -2.8690199 1.00000 0.00000             
O2    shel 0.6662253 0.4259982 0.3676589 -2.8690199 1.00000 0.00000             
O2    shel 0.6624059 0.9230356 0.8824005 -2.8690199 1.00000 0.00000             
O2    shel 0.9165735 0.3253990 0.1209869 -2.8690199 1.00000 0.00000             
O2    shel 0.9126192 0.8277802 0.6330502 -2.8690199 1.00000 0.00000             
O2    shel 0.0921268 0.0244475 0.5161022 -2.8690199 1.00000 0.00000             
O2    shel 0.0941869 0.5241748 0.0108682 -2.8690199 1.00000 0.00000             
O2    shel 0.3436641 0.2272769 0.7608759 -2.8690199 1.00000 0.00000             
O2    shel 0.3422256 0.7262875 0.2644971 -2.8690199 1.00000 0.00000             
O2    shel 0.5922104 0.0238452 0.0159583 -2.8690199 1.00000 0.00000             
O2    shel 0.5929163 0.5228044 0.5070869 -2.8690199 1.00000 0.00000             
O2    shel 0.8439066 0.2275684 0.2573718 -2.8690199 1.00000 0.00000             
O2    shel 0.8422954 0.7267509 0.7640491 -2.8690199 1.00000 0.00000             
O2    shel 0.1523252 0.2725498 0.7634556 -2.8690199 1.00000 0.00000             
O2    shel 0.1509292 0.7689186 0.2726466 -2.8690199 1.00000 0.00000             
O2    shel 0.4040729 0.4773954 0.5000183 -2.8690199 1.00000 0.00000             
O2    shel 0.4004402 0.9814848 0.0183308 -2.8690199 1.00000 0.00000             
O2    shel 0.6533188 0.2712274 0.2611264 -2.8690199 1.00000 0.00000             
O2    shel 0.6505789 0.7687097 0.7679211 -2.8690199 1.00000 0.00000             
O2    shel 0.9035054 0.4797198 0.0127289 -2.8690199 1.00000 0.00000             
O2    shel 0.9005248 0.9819290 0.5189873 -2.8690199 1.00000 0.00000             
O2    shel 0.2084526 0.1551903 0.6993743 -2.8690199 1.00000 0.00000             
O2    shel 0.2078128 0.6514706 0.2080948 -2.8690199 1.00000 0.00000             
O2    shel 0.4582266 0.0984601 0.9582212 -2.8690199 1.00000 0.00000             
O2    shel 0.4578576 0.5962393 0.4461539 -2.8690199 1.00000 0.00000             
O2    shel 0.7090617 0.1542570 0.1958469 -2.8690199 1.00000 0.00000             
O2    shel 0.7084304 0.6519513 0.7054893 -2.8690199 1.00000 0.00000             
O2    shel 0.9583348 0.0988182 0.4572399 -2.8690199 1.00000 0.00000             
O2    shel 0.9588685 0.5967853 0.9482687 -2.8690199 1.00000 0.00000             
O2    shel 0.0328673 0.4090074 0.9429486 -2.8690199 1.00000 0.00000             
O2    shel 0.0277406 0.9108998 0.4482044 -2.8690199 1.00000 0.00000             
O2    shel 0.2818460 0.3420905 0.6947793 -2.8690199 1.00000 0.00000             
O2    shel 0.2780612 0.8402264 0.2025202 -2.8690199 1.00000 0.00000             
O2    shel 0.5328508 0.4066323 0.4409509 -2.8690199 1.00000 0.00000             
O2    shel 0.5277204 0.9103436 0.9486591 -2.8690199 1.00000 0.00000             
O2    shel 0.7821944 0.3425634 0.1913823 -2.8690199 1.00000 0.00000             
O2    shel 0.7777632 0.8401701 0.6974192 -2.8690199 1.00000 0.00000             
O2    shel 0.1828376 0.2376591 0.3998813 -2.8690199 1.00000 0.00000             
O2    shel 0.1838282 0.7339374 0.9085223 -2.8690199 1.00000 0.00000             
O2    shel 0.4339458 0.0180624 0.6551894 -2.8690199 1.00000 0.00000             
O2    shel 0.4320340 0.5156612 0.1408635 -2.8690199 1.00000 0.00000             
O2    shel 0.6837220 0.2373999 0.8972376 -2.8690199 1.00000 0.00000             
O2    shel 0.6845794 0.7333302 0.4042289 -2.8690199 1.00000 0.00000             
O2    shel 0.9339112 0.0177254 0.1552927 -2.8690199 1.00000 0.00000             
O2    shel 0.9343872 0.5135743 0.6491668 -2.8690199 1.00000 0.00000             
O2    shel 0.0689922 0.4828251 0.6416934 -2.8690199 1.00000 0.00000             
O2    shel 0.0674669 0.9838703 0.1465994 -2.8690199 1.00000 0.00000             
O2    shel 0.3174428 0.2679502 0.3926536 -2.8690199 1.00000 0.00000             
O2    shel 0.3173286 0.7687356 0.8970772 -2.8690199 1.00000 0.00000             
O2    shel 0.5665128 0.4825101 0.1399191 -2.8690199 1.00000 0.00000             
O2    shel 0.5674424 0.9833482 0.6469141 -2.8690199 1.00000 0.00000             
O2    shel 0.8181917 0.2687719 0.8893572 -2.8690199 1.00000 0.00000             
O2    shel 0.8180240 0.7677366 0.3950321 -2.8690199 1.00000 0.00000             
O1    shel 0.0288077 0.7045144 0.5505094 -2.0499999 1.00000 0.00000             
O1    shel 0.0397769 0.2113935 0.0663563 -2.0499999 1.00000 0.00000             
O1    shel 0.2777450 0.0474013 0.3003432 -2.0499999 1.00000 0.00000             
O1    shel 0.5294361 0.7042812 0.0483147 -2.0499999 1.00000 0.00000             
O1    shel 0.5405328 0.2111023 0.5668973 -2.0499999 1.00000 0.00000             
O1    shel 0.7778336 0.0474031 0.7985849 -2.0499999 1.00000 0.00000             
O1    shel 0.7898229 0.5401224 0.3166853 -2.0499999 1.00000 0.00000             
O1    shel 0.2146182 0.4579016 0.4289340 -2.0499999 1.00000 0.00000             
O1    shel 0.2037158 0.9603880 0.9235063 -2.0499999 1.00000 0.00000             
O1    shel 0.4534463 0.7904333 0.6711626 -2.0499999 1.00000 0.00000             
O1    shel 0.4644859 0.2894620 0.1701657 -2.0499999 1.00000 0.00000             
O1    shel 0.7134999 0.4610371 0.9186725 -2.0499999 1.00000 0.00000             
O1    shel 0.7037528 0.9598921 0.4219230 -2.0499999 1.00000 0.00000             
O1    shel 0.9640534 0.2906029 0.6681261 -2.0499999 1.00000 0.00000             
O1    shel 0.9541716 0.7916083 0.1722876 -2.0499999 1.00000 0.00000             
O1    shel 0.0713272 0.8268789 0.8535540 -2.0499999 1.00000 0.00000             
O1    shel 0.3208244 0.9256133 0.6048249 -2.0499999 1.00000 0.00000             
O1    shel 0.5709028 0.8259967 0.3541147 -2.0499999 1.00000 0.00000             
O1    shel 0.8207767 0.9252058 0.1024207 -2.0499999 1.00000 0.00000             
space
  1
totalenergy         -4852.2143859794 eV
species  13
P      core    5.000000                  
Si     core    4.000000                  
Al     core    3.000000                  
O2     core    0.869020                  
O2     shel   -2.869020                  
Na     core    1.000000                  
K      core    1.000000                  
Li     core    1.000000                  
Mg     core    2.000000                  
Ca     core    2.000000                  
H      core    0.400000                  
O1     core    1.250000                  
O1     shel   -2.050000                  
buck     
Si    core O2    shel  1283.90700     0.320520  10.66200      0.00 20.00
buck     
Al    core O2    shel  1460.30000     0.299120  0.000000      0.00 20.00
buck     
O2    shel O2    shel  22764.0000     0.149000  27.88000      0.00 20.00
buck     
Na    core O2    shel  1226.84000     0.306500  0.000000      0.00 20.00
buck     
Ca    core O2    shel  1090.40000     0.343700  0.000000      0.00 16.00
buck     
Li    core O2    shel  1303.90000     0.260000  0.000000      0.00 20.00
buck     
K     core O2    shel  1000.30000     0.361980  10.56900      0.00 20.00
buck     
Mg    core O2    shel  1428.50000     0.294530  0.000000      0.00 20.00
spring
O2     74.920000    
buck     
Al    core O1    shel  1460.30000     0.299120  0.000000      0.00 16.00
buck     
Na    core O1    shel  1226.84000     0.306500  0.000000      0.00 20.00
buck     
Li    core O1    shel  1303.90000     0.260000  0.000000      0.00 20.00
buck     
K     core O1    shel  1000.30000     0.361980  10.56900      0.00 20.00
buck     
Ca    core O1    shel  435.070000     0.343700  0.000000      0.00 12.00
buck     
Si    core O1    shel  1283.90700     0.320520  10.66200      0.00 16.00
buck     
O1    shel O2    shel  22764.3000     0.149000  28.92000      0.00 16.00
buck inter     
H     core O1    shel  396.270000     0.250000  10.00000      0.00 20.00
buck     
H     core O2    shel  396.270000     0.250000  0.000000      0.00 10.00
spring
O1     209.44960    
morse intra     
H     core O1    shel 6.2037100     2.2200      0.92376  0.5000  0.000  1.100
morse intra     
H     core H     core 0.0000000     2.8405      1.50000  0.5000  0.000  1.650
lennard 12  6     
O1    shel O1    shel  39344.980      42.150000      0.000 20.000
three       regular  
Al    core O2    shel O2    shel 2.0972      109.47000 &
  0.000  1.900  0.000  1.900  0.000  3.500
three       regular  
Si    core O2    shel O2    shel 2.0972      109.47000 &
  0.000  1.900  0.000  1.900  0.000  4.000
three intra regular  
O1    shel H     core H     core 4.1998      108.69000 &
  0.000  1.500  0.000  1.500  0.000  2.000
nobond Si    core Si    core
nobond Al    core Si    core
nobond Na    core Si    core
nobond Si    core Ca    core
nobond Si    core K     core
nobond H     core Si    core
nobond O1    core Si    core
nobond Si    core O1    shel
nobond O2    core Si    core
nobond Si    core O2    shel
nobond Al    core Al    core
nobond Na    core Al    core
nobond Al    core Ca    core
nobond Al    core K     core
nobond H     core Al    core
nobond O1    core Al    core
nobond Al    core O1    shel
nobond O2    core Al    core
nobond Al    core O2    shel
nobond Na    core Na    core
nobond Na    core Ca    core
nobond Na    core K     core
nobond H     core Na    core
nobond O1    core Na    core
nobond Na    core O1    shel
nobond O2    core Na    core
nobond Na    core O2    shel
nobond Ca    core Ca    core
nobond K     core Ca    core
nobond H     core Ca    core
nobond O1    core Ca    core
nobond Ca    core O1    shel
nobond O2    core Ca    core
nobond Ca    core O2    shel
nobond K     core K     core
nobond H     core K     core
nobond O1    core K     core
nobond K     core O1    shel
nobond O2    core K     core
nobond K     core O2    shel
nobond H     core H     core
nobond H     core O2    core
nobond H     core O2    shel
nobond O2    core O2    core
nobond O2    core O2    shel
nobond O1    core O2    core
nobond O2    core O1    shel
nobond O2    shel O2    shel
nobond O1    core O2    shel
nobond O1    shel O2    shel
nobond O1    core O1    core
nobond O1    shel O1    shel
stepmx opt     0.050000
maxcyc opt     3000
maxcyc fit     3000
dump every      1 scol04_N2.dump                                              
output xtl scol04_N2.xtl                                               
