# 
# Keywords:
# 
opti conp molq rfo nosym full phonon  
# 
# Options:
# 
title
title                                                                           
Experimental Mesolite sructure from Scuckenschmidt et al (2000)                 
 - min new, sym p1, rspeed 0.1, revised pots                                    
 - including latest na-o1 pot                                                   
end
cell
  18.277757  56.437651   6.523522  90.009388  89.979322  89.994151
fractional  1   
Si    core 0.2500000 0.2500000 0.0000000 4.00000000 1.00000 0.00000             
Si    core 0.2504138 0.7498400 0.5010457 4.00000000 1.00000 0.00000             
Si    core 0.7455516 0.2496476 0.5002844 4.00000000 1.00000 0.00000             
Si    core 0.7448484 0.7501509 0.0011303 4.00000000 1.00000 0.00000             
Si    core 0.5002941 0.4998775 0.7516354 4.00000000 1.00000 0.00000             
Si    core 0.4951830 0.9999521 0.2512134 4.00000000 1.00000 0.00000             
Si    core 0.9951811 0.4999177 0.2496195 4.00000000 1.00000 0.00000             
Si    core 0.9996405 0.0000409 0.7506477 4.00000000 1.00000 0.00000             
Si    core 0.4979159 0.3322294 0.2670378 4.00000000 1.00000 0.00000             
Si    core 0.4965139 0.8327880 0.7669635 4.00000000 1.00000 0.00000             
Si    core 0.9970270 0.3326593 0.7666796 4.00000000 1.00000 0.00000             
Si    core 0.9981256 0.8325487 0.2686748 4.00000000 1.00000 0.00000             
Si    core 0.4989056 0.6672068 0.2665418 4.00000000 1.00000 0.00000             
Si    core 0.4977641 0.1674519 0.7665090 4.00000000 1.00000 0.00000             
Si    core 0.9970942 0.6674793 0.7682977 4.00000000 1.00000 0.00000             
Si    core 0.9984916 0.1669808 0.2663617 4.00000000 1.00000 0.00000             
Si    core 0.7476558 0.5823503 0.5175357 4.00000000 1.00000 0.00000             
Si    core 0.7470333 0.0822977 0.0170993 4.00000000 1.00000 0.00000             
Si    core 0.2483066 0.5826905 0.0170945 4.00000000 1.00000 0.00000             
Si    core 0.2491795 0.0825132 0.5155101 4.00000000 1.00000 0.00000             
Si    core 0.2482659 0.4173415 0.5180389 4.00000000 1.00000 0.00000             
Si    core 0.2476258 0.9176092 0.0181588 4.00000000 1.00000 0.00000             
Si    core 0.7465391 0.4171532 0.0158824 4.00000000 1.00000 0.00000             
Si    core 0.7468527 0.9173830 0.5175190 4.00000000 1.00000 0.00000             
Si    core 0.1555259 0.2649695 0.3704060 4.00000000 1.00000 0.00000             
Si    core 0.1559635 0.7648809 0.8713695 4.00000000 1.00000 0.00000             
Si    core 0.6500404 0.2638119 0.8724495 4.00000000 1.00000 0.00000             
Si    core 0.6493078 0.7642560 0.3734413 4.00000000 1.00000 0.00000             
Si    core 0.3454927 0.2358436 0.3719608 4.00000000 1.00000 0.00000             
Si    core 0.3459664 0.7357439 0.8731119 4.00000000 1.00000 0.00000             
Si    core 0.8400453 0.2347000 0.8704334 4.00000000 1.00000 0.00000             
Si    core 0.8392815 0.7351378 0.3712667 4.00000000 1.00000 0.00000             
Si    core 0.5957937 0.5139098 0.1237382 4.00000000 1.00000 0.00000             
Si    core 0.5905120 0.0146382 0.6206480 4.00000000 1.00000 0.00000             
Si    core 0.0895661 0.5149912 0.6198706 4.00000000 1.00000 0.00000             
Si    core 0.0952686 0.0140628 0.1209080 4.00000000 1.00000 0.00000             
Si    core 0.4057377 0.4849657 0.1218812 4.00000000 1.00000 0.00000             
Si    core 0.3999592 0.9859070 0.6236282 4.00000000 1.00000 0.00000             
Si    core 0.8996812 0.4856883 0.6217874 4.00000000 1.00000 0.00000             
Si    core 0.9053038 0.9850027 0.1212838 4.00000000 1.00000 0.00000             
Si    core 0.5857123 0.3462685 0.6436181 4.00000000 1.00000 0.00000             
Si    core 0.5845621 0.8469248 0.1437109 4.00000000 1.00000 0.00000             
Si    core 0.0849170 0.3474006 0.1407330 4.00000000 1.00000 0.00000             
Si    core 0.0858911 0.8472410 0.6426009 4.00000000 1.00000 0.00000             
Si    core 0.4108413 0.6530821 0.6434191 4.00000000 1.00000 0.00000             
Si    core 0.4099123 0.1533734 0.1431628 4.00000000 1.00000 0.00000             
Si    core 0.9093299 0.6527645 0.1422594 4.00000000 1.00000 0.00000             
Si    core 0.9105566 0.1522374 0.6405629 4.00000000 1.00000 0.00000             
Si    core 0.6598013 0.5963514 0.8942078 4.00000000 1.00000 0.00000             
Si    core 0.6593462 0.0969304 0.3911348 4.00000000 1.00000 0.00000             
Si    core 0.1603797 0.5974938 0.3913001 4.00000000 1.00000 0.00000             
Si    core 0.1610760 0.0966375 0.8923626 4.00000000 1.00000 0.00000             
Si    core 0.8348826 0.9026241 0.8916202 4.00000000 1.00000 0.00000             
Si    core 0.8345927 0.4030307 0.3926564 4.00000000 1.00000 0.00000             
Si    core 0.3354840 0.9036051 0.3945676 4.00000000 1.00000 0.00000             
Si    core 0.3359769 0.4026510 0.8918673 4.00000000 1.00000 0.00000             
Si    core 0.3994901 0.3208497 0.6416456 4.00000000 1.00000 0.00000             
Si    core 0.3987457 0.8212893 0.1419970 4.00000000 1.00000 0.00000             
Si    core 0.8991729 0.3197327 0.1413192 4.00000000 1.00000 0.00000             
Si    core 0.8996302 0.8197095 0.6428361 4.00000000 1.00000 0.00000             
Si    core 0.5965726 0.6786843 0.6415945 4.00000000 1.00000 0.00000             
Si    core 0.5961251 0.1787956 0.1410253 4.00000000 1.00000 0.00000             
Si    core 0.0956061 0.6803091 0.1422115 4.00000000 1.00000 0.00000             
Si    core 0.0963440 0.1799206 0.6408802 4.00000000 1.00000 0.00000             
Si    core 0.3461913 0.5698136 0.3917064 4.00000000 1.00000 0.00000             
Si    core 0.3467930 0.0710357 0.8906295 4.00000000 1.00000 0.00000             
Si    core 0.8459654 0.5709406 0.8918878 4.00000000 1.00000 0.00000             
Si    core 0.8458285 0.0696031 0.3908108 4.00000000 1.00000 0.00000             
Si    core 0.6488150 0.4285710 0.3912817 4.00000000 1.00000 0.00000             
Si    core 0.6493012 0.9300349 0.8924358 4.00000000 1.00000 0.00000             
Si    core 0.1497043 0.4302469 0.8918819 4.00000000 1.00000 0.00000             
Si    core 0.1491747 0.9290576 0.3928249 4.00000000 1.00000 0.00000             
Al    core 0.7840584 0.7795602 0.6188784 3.00000000 1.00000 0.00000             
Al    core 0.7846838 0.2791267 0.1179889 3.00000000 1.00000 0.00000             
Al    core 0.2901717 0.7797583 0.1161910 3.00000000 1.00000 0.00000             
Al    core 0.2896014 0.2798513 0.6151504 3.00000000 1.00000 0.00000             
Al    core 0.7050787 0.7202448 0.6162727 3.00000000 1.00000 0.00000             
Al    core 0.7059503 0.2198202 0.1153877 3.00000000 1.00000 0.00000             
Al    core 0.2111782 0.7204600 0.1187199 3.00000000 1.00000 0.00000             
Al    core 0.2108388 0.2205327 0.6177132 3.00000000 1.00000 0.00000             
Al    core 0.4611095 0.5293187 0.3695266 3.00000000 1.00000 0.00000             
Al    core 0.4565163 0.0298235 0.8665948 3.00000000 1.00000 0.00000             
Al    core 0.9553457 0.5297685 0.8647024 3.00000000 1.00000 0.00000             
Al    core 0.9605120 0.0292777 0.3678095 3.00000000 1.00000 0.00000             
Al    core 0.5397995 0.4699673 0.3668285 3.00000000 1.00000 0.00000             
Al    core 0.5346708 0.9704628 0.8685900 3.00000000 1.00000 0.00000             
Al    core 0.0344536 0.4704992 0.8671321 3.00000000 1.00000 0.00000             
Al    core 0.0392455 0.9701030 0.3661450 3.00000000 1.00000 0.00000             
Al    core 0.9501407 0.8625213 0.8872828 3.00000000 1.00000 0.00000             
Al    core 0.9489422 0.3627014 0.3852711 3.00000000 1.00000 0.00000             
Al    core 0.4507609 0.8635099 0.3869708 3.00000000 1.00000 0.00000             
Al    core 0.4523645 0.3628913 0.8873251 3.00000000 1.00000 0.00000             
Al    core 0.5445450 0.6364448 0.8865717 3.00000000 1.00000 0.00000             
Al    core 0.5432174 0.1367623 0.3866165 3.00000000 1.00000 0.00000             
Al    core 0.0450006 0.6375263 0.3867246 3.00000000 1.00000 0.00000             
Al    core 0.0465315 0.1369293 0.8848249 3.00000000 1.00000 0.00000             
Al    core 0.2963131 0.6127793 0.6357417 3.00000000 1.00000 0.00000             
Al    core 0.2946305 0.1132989 0.1357621 3.00000000 1.00000 0.00000             
Al    core 0.7931470 0.6129885 0.1376351 3.00000000 1.00000 0.00000             
Al    core 0.7948746 0.1122955 0.6357905 3.00000000 1.00000 0.00000             
Al    core 0.7010056 0.3863407 0.6361503 3.00000000 1.00000 0.00000             
Al    core 0.6994580 0.8872094 0.1378941 3.00000000 1.00000 0.00000             
Al    core 0.2002044 0.3874611 0.1363655 3.00000000 1.00000 0.00000             
Al    core 0.2021449 0.8869920 0.6381910 3.00000000 1.00000 0.00000             
Al    core 0.5322246 0.8028338 0.3879407 3.00000000 1.00000 0.00000             
Al    core 0.5324485 0.3022126 0.8876025 3.00000000 1.00000 0.00000             
Al    core 0.0352370 0.8029766 0.8868657 3.00000000 1.00000 0.00000             
Al    core 0.0351040 0.3031291 0.3852839 3.00000000 1.00000 0.00000             
Al    core 0.4630818 0.1974398 0.3872338 3.00000000 1.00000 0.00000             
Al    core 0.4630792 0.6971651 0.8877073 3.00000000 1.00000 0.00000             
Al    core 0.9604405 0.1965278 0.8851028 3.00000000 1.00000 0.00000             
Al    core 0.9599780 0.6970406 0.3865809 3.00000000 1.00000 0.00000             
Al    core 0.2101263 0.5531901 0.6356099 3.00000000 1.00000 0.00000             
Al    core 0.2133215 0.0525172 0.1366557 3.00000000 1.00000 0.00000             
Al    core 0.7130740 0.5523336 0.1383216 3.00000000 1.00000 0.00000             
Al    core 0.7104644 0.0527320 0.6351769 3.00000000 1.00000 0.00000             
Al    core 0.7823137 0.4471250 0.6369160 3.00000000 1.00000 0.00000             
Al    core 0.7847846 0.9468046 0.1369184 3.00000000 1.00000 0.00000             
Al    core 0.2851998 0.4469218 0.1363261 3.00000000 1.00000 0.00000             
Al    core 0.2821810 0.9476225 0.6387307 3.00000000 1.00000 0.00000             
Na    core 0.4929123 0.2727795 0.4352546 1.00000000 1.00000 0.00000             
Na    core 0.4930479 0.7732636 0.9364255 1.00000000 1.00000 0.00000             
Na    core 0.9719310 0.2590668 0.1221956 1.00000000 1.00000 0.00000             
Na    core 0.9715542 0.7591502 0.6226802 1.00000000 1.00000 0.00000             
Na    core 0.5023703 0.7268255 0.4366945 1.00000000 1.00000 0.00000             
Na    core 0.5025071 0.2270091 0.9357976 1.00000000 1.00000 0.00000             
Na    core 0.0236272 0.7409235 0.1226776 1.00000000 1.00000 0.00000             
Na    core 0.0236326 0.2406332 0.6221599 1.00000000 1.00000 0.00000             
Na    core 0.2734858 0.5092341 0.3722021 1.00000000 1.00000 0.00000             
Na    core 0.2512015 0.0227875 0.6856331 1.00000000 1.00000 0.00000             
Na    core 0.7524555 0.5228883 0.6856735 1.00000000 1.00000 0.00000             
Na    core 0.7713972 0.0105435 0.3461634 1.00000000 1.00000 0.00000             
Na    core 0.7429773 0.4767467 0.1860791 1.00000000 1.00000 0.00000             
Na    core 0.7239272 0.9895341 0.8604707 1.00000000 1.00000 0.00000             
Na    core 0.2215923 0.4909150 0.8726218 1.00000000 1.00000 0.00000             
Na    core 0.2412959 0.9768652 0.1839942 1.00000000 1.00000 0.00000             
Ca    core 0.2304110 0.3287226 0.3773118 2.00000000 1.00000 0.00000             
Ca    core 0.2303657 0.8282516 0.8785349 2.00000000 1.00000 0.00000             
Ca    core 0.7304442 0.3278945 0.8799756 2.00000000 1.00000 0.00000             
Ca    core 0.7302572 0.8287821 0.3808969 2.00000000 1.00000 0.00000             
Ca    core 0.2651471 0.1717894 0.3795111 2.00000000 1.00000 0.00000             
Ca    core 0.2651555 0.6713548 0.8800318 2.00000000 1.00000 0.00000             
Ca    core 0.7652251 0.1710811 0.8768196 2.00000000 1.00000 0.00000             
Ca    core 0.7648869 0.6717837 0.3782299 2.00000000 1.00000 0.00000             
Ca    core 0.5150253 0.5780699 0.1307433 2.00000000 1.00000 0.00000             
Ca    core 0.5147023 0.0783055 0.6275483 2.00000000 1.00000 0.00000             
Ca    core 0.0149110 0.5786769 0.6274903 2.00000000 1.00000 0.00000             
Ca    core 0.0156010 0.0782040 0.1286035 2.00000000 1.00000 0.00000             
Ca    core 0.4803967 0.4215653 0.1281574 2.00000000 1.00000 0.00000             
Ca    core 0.4806918 0.9216698 0.6307346 2.00000000 1.00000 0.00000             
Ca    core 0.9802320 0.4213598 0.6292186 2.00000000 1.00000 0.00000             
Ca    core 0.9799801 0.9212515 0.1287606 2.00000000 1.00000 0.00000             
O2    core 0.5106259 0.8084210 0.6446240 0.86902000 1.00000 0.00000             
O2    core 0.5113216 0.3077941 0.1447886 0.86902000 1.00000 0.00000             
O2    core 0.0175034 0.8090395 0.1424957 0.86902000 1.00000 0.00000             
O2    core 0.0168099 0.3092067 0.6404243 0.86902000 1.00000 0.00000             
O2    core 0.4842457 0.1918698 0.6443457 0.86902000 1.00000 0.00000             
O2    core 0.4847378 0.6915604 0.1442303 0.86902000 1.00000 0.00000             
O2    core 0.9786327 0.1904223 0.1402025 0.86902000 1.00000 0.00000             
O2    core 0.9777972 0.6909841 0.6421521 0.86902000 1.00000 0.00000             
O2    core 0.7343240 0.5579152 0.3953272 0.86902000 1.00000 0.00000             
O2    core 0.7281469 0.0587232 0.8908954 0.86902000 1.00000 0.00000             
O2    core 0.2283869 0.5592472 0.8908378 0.86902000 1.00000 0.00000             
O2    core 0.2350712 0.0581725 0.3930295 0.86902000 1.00000 0.00000             
O2    core 0.2674536 0.4408518 0.3919054 0.86902000 1.00000 0.00000             
O2    core 0.2609759 0.9420431 0.8958496 0.86902000 1.00000 0.00000             
O2    core 0.7606878 0.4415108 0.8935257 0.86902000 1.00000 0.00000             
O2    core 0.7641179 0.9407011 0.3888951 0.86902000 1.00000 0.00000             
O2    core 0.4843863 0.3546897 0.1260913 0.86902000 1.00000 0.00000             
O2    core 0.4822585 0.8552619 0.6263092 0.86902000 1.00000 0.00000             
O2    core 0.9782706 0.3550384 0.6281902 0.86902000 1.00000 0.00000             
O2    core 0.9798554 0.8549109 0.1298408 0.86902000 1.00000 0.00000             
O2    core 0.0172706 0.1445977 0.1278567 0.86902000 1.00000 0.00000             
O2    core 0.0152810 0.6451080 0.6293426 0.86902000 1.00000 0.00000             
O2    core 0.5113315 0.1449847 0.6254847 0.86902000 1.00000 0.00000             
O2    core 0.5130855 0.6447111 0.1259894 0.86902000 1.00000 0.00000             
O2    core 0.7611081 0.6048089 0.3765006 0.86902000 1.00000 0.00000             
O2    core 0.7648390 0.1046539 0.8779063 0.86902000 1.00000 0.00000             
O2    core 0.2670495 0.6050727 0.8786398 0.86902000 1.00000 0.00000             
O2    core 0.2633433 0.1050423 0.3753855 0.86902000 1.00000 0.00000             
O2    core 0.2300344 0.3949855 0.3789621 0.86902000 1.00000 0.00000             
O2    core 0.2341306 0.8951483 0.8771605 0.86902000 1.00000 0.00000             
O2    core 0.7323931 0.3946449 0.8754946 0.86902000 1.00000 0.00000             
O2    core 0.7286535 0.8946601 0.3814301 0.86902000 1.00000 0.00000             
O2    core 0.7658454 0.7730451 0.8709707 0.86902000 1.00000 0.00000             
O2    core 0.7664928 0.2725268 0.3697814 0.86902000 1.00000 0.00000             
O2    core 0.2696251 0.7723861 0.3644543 0.86902000 1.00000 0.00000             
O2    core 0.2691240 0.2725781 0.8637906 0.86902000 1.00000 0.00000             
O2    core 0.7256397 0.7275933 0.8645608 0.86902000 1.00000 0.00000             
O2    core 0.7264567 0.2270576 0.3640644 0.86902000 1.00000 0.00000             
O2    core 0.2293865 0.7269393 0.3708712 0.86902000 1.00000 0.00000             
O2    core 0.2290233 0.2271123 0.8695340 0.86902000 1.00000 0.00000             
O2    core 0.4794164 0.5227767 0.6213598 0.86902000 1.00000 0.00000             
O2    core 0.4768922 0.0226577 0.1154762 0.86902000 1.00000 0.00000             
O2    core 0.9758279 0.5224645 0.1132467 0.86902000 1.00000 0.00000             
O2    core 0.9791839 0.0229772 0.6196437 0.86902000 1.00000 0.00000             
O2    core 0.5192740 0.4772872 0.6152377 0.86902000 1.00000 0.00000             
O2    core 0.5161658 0.9771712 0.1198675 0.86902000 1.00000 0.00000             
O2    core 0.0163312 0.4770384 0.1192216 0.86902000 1.00000 0.00000             
O2    core 0.0193187 0.9774738 0.6148490 0.86902000 1.00000 0.00000             
O2    core 0.3204702 0.3089604 0.6018333 0.86902000 1.00000 0.00000             
O2    core 0.3202004 0.8089877 0.1038269 0.86902000 1.00000 0.00000             
O2    core 0.8200250 0.3076867 0.0991106 0.86902000 1.00000 0.00000             
O2    core 0.8201011 0.8080080 0.5992140 0.86902000 1.00000 0.00000             
O2    core 0.6751192 0.6909990 0.6037018 0.86902000 1.00000 0.00000             
O2    core 0.6751511 0.1906987 0.1016994 0.86902000 1.00000 0.00000             
O2    core 0.1751356 0.6920066 0.0986976 0.86902000 1.00000 0.00000             
O2    core 0.1755128 0.1919581 0.5987047 0.86902000 1.00000 0.00000             
O2    core 0.4255091 0.5578376 0.3499370 0.86902000 1.00000 0.00000             
O2    core 0.4258299 0.0589692 0.8525990 0.86902000 1.00000 0.00000             
O2    core 0.9247926 0.5589264 0.8518607 0.86902000 1.00000 0.00000             
O2    core 0.9250760 0.0578345 0.3470854 0.86902000 1.00000 0.00000             
O2    core 0.5700472 0.4407647 0.3537788 0.86902000 1.00000 0.00000             
O2    core 0.5697950 0.9419146 0.8510708 0.86902000 1.00000 0.00000             
O2    core 0.0703364 0.4420103 0.8478040 0.86902000 1.00000 0.00000             
O2    core 0.0702476 0.9409943 0.3529165 0.86902000 1.00000 0.00000             
O2    core 0.6669441 0.3574990 0.6525071 0.86902000 1.00000 0.00000             
O2    core 0.6653162 0.8583322 0.1502676 0.86902000 1.00000 0.00000             
O2    core 0.1655994 0.3587965 0.1506293 0.86902000 1.00000 0.00000             
O2    core 0.1670956 0.8584122 0.6546637 0.86902000 1.00000 0.00000             
O2    core 0.3300673 0.6416681 0.6498032 0.86902000 1.00000 0.00000             
O2    core 0.3287097 0.1421358 0.1518395 0.86902000 1.00000 0.00000             
O2    core 0.8281585 0.6415742 0.1542429 0.86902000 1.00000 0.00000             
O2    core 0.8297235 0.1409119 0.6505145 0.86902000 1.00000 0.00000             
O2    core 0.5785902 0.6076051 0.9029980 0.86902000 1.00000 0.00000             
O2    core 0.5782051 0.1081450 0.4036739 0.86902000 1.00000 0.00000             
O2    core 0.0796549 0.6088632 0.4010174 0.86902000 1.00000 0.00000             
O2    core 0.0802856 0.1080359 0.8985142 0.86902000 1.00000 0.00000             
O2    core 0.9156117 0.8912027 0.9012628 0.86902000 1.00000 0.00000             
O2    core 0.9153575 0.3916157 0.3989290 0.86902000 1.00000 0.00000             
O2    core 0.4167112 0.8923500 0.4035060 0.86902000 1.00000 0.00000             
O2    core 0.4171605 0.3914563 0.9042111 0.86902000 1.00000 0.00000             
O2    core 0.5671775 0.7742984 0.3584203 0.86902000 1.00000 0.00000             
O2    core 0.5677015 0.2737118 0.8579001 0.86902000 1.00000 0.00000             
O2    core 0.0729914 0.7745980 0.8662336 0.86902000 1.00000 0.00000             
O2    core 0.0725698 0.2746986 0.3651044 0.86902000 1.00000 0.00000             
O2    core 0.4278263 0.2259261 0.3572152 0.86902000 1.00000 0.00000             
O2    core 0.4280873 0.7256857 0.8580916 0.86902000 1.00000 0.00000             
O2    core 0.9229795 0.2249523 0.8650501 0.86902000 1.00000 0.00000             
O2    core 0.9222522 0.7254104 0.3660384 0.86902000 1.00000 0.00000             
O2    core 0.1724814 0.5247875 0.6148539 0.86902000 1.00000 0.00000             
O2    core 0.1776381 0.0240847 0.1081898 0.86902000 1.00000 0.00000             
O2    core 0.6780706 0.5238112 0.1090685 0.86902000 1.00000 0.00000             
O2    core 0.6741012 0.0240773 0.6134627 0.86902000 1.00000 0.00000             
O2    core 0.8175041 0.4756299 0.6070079 0.86902000 1.00000 0.00000             
O2    core 0.8218118 0.9754325 0.1140651 0.86902000 1.00000 0.00000             
O2    core 0.3227397 0.4753124 0.1162313 0.86902000 1.00000 0.00000             
O2    core 0.3175532 0.9761245 0.6102432 0.86902000 1.00000 0.00000             
O2    core 0.0957605 0.3241935 0.2867385 0.86902000 1.00000 0.00000             
O2    core 0.0960167 0.8239922 0.7883115 0.86902000 1.00000 0.00000             
O2    core 0.5946356 0.3235658 0.7967734 0.86902000 1.00000 0.00000             
O2    core 0.5942204 0.8242438 0.2969798 0.86902000 1.00000 0.00000             
O2    core 0.4009574 0.1760596 0.2965142 0.86902000 1.00000 0.00000             
O2    core 0.4010520 0.6757509 0.7968126 0.86902000 1.00000 0.00000             
O2    core 0.8998012 0.1754601 0.7864683 0.86902000 1.00000 0.00000             
O2    core 0.8992372 0.6759904 0.2883126 0.86902000 1.00000 0.00000             
O2    core 0.1495465 0.5742856 0.5373313 0.86902000 1.00000 0.00000             
O2    core 0.1514109 0.0739688 0.0457454 0.86902000 1.00000 0.00000             
O2    core 0.6507840 0.5736660 0.0475581 0.86902000 1.00000 0.00000             
O2    core 0.6494031 0.0736754 0.5370736 0.86902000 1.00000 0.00000             
O2    core 0.8443238 0.4257035 0.5459922 0.86902000 1.00000 0.00000             
O2    core 0.8456689 0.9257267 0.0392799 0.86902000 1.00000 0.00000             
O2    core 0.3459864 0.4258879 0.0377711 0.86902000 1.00000 0.00000             
O2    core 0.3444273 0.9262965 0.5477819 0.86902000 1.00000 0.00000             
O2    core 0.8885667 0.8416308 0.7944487 0.86902000 1.00000 0.00000             
O2    core 0.8874508 0.3417762 0.2915772 0.86902000 1.00000 0.00000             
O2    core 0.3878624 0.8429800 0.2953187 0.86902000 1.00000 0.00000             
O2    core 0.3893746 0.3423563 0.7970219 0.86902000 1.00000 0.00000             
O2    core 0.6074124 0.6569767 0.7946913 0.86902000 1.00000 0.00000             
O2    core 0.6062946 0.1572358 0.2958411 0.86902000 1.00000 0.00000             
O2    core 0.1066769 0.6583830 0.2938266 0.86902000 1.00000 0.00000             
O2    core 0.1079585 0.1578574 0.7908984 0.86902000 1.00000 0.00000             
O2    core 0.3577889 0.5918821 0.5416366 0.86902000 1.00000 0.00000             
O2    core 0.3574167 0.0927227 0.0441168 0.86902000 1.00000 0.00000             
O2    core 0.8561954 0.5924388 0.0473422 0.86902000 1.00000 0.00000             
O2    core 0.8565846 0.0914287 0.5433402 0.86902000 1.00000 0.00000             
O2    core 0.6381235 0.4068560 0.5443319 0.86902000 1.00000 0.00000             
O2    core 0.6381215 0.9082495 0.0454078 0.86902000 1.00000 0.00000             
O2    core 0.1385338 0.4083470 0.0438188 0.86902000 1.00000 0.00000             
O2    core 0.1391726 0.9075577 0.5482577 0.86902000 1.00000 0.00000             
O2    core 0.3486287 0.2593894 0.5086881 0.86902000 1.00000 0.00000             
O2    core 0.3494490 0.7593773 0.0091599 0.86902000 1.00000 0.00000             
O2    core 0.8403524 0.2576341 0.0147196 0.86902000 1.00000 0.00000             
O2    core 0.8395476 0.7580066 0.5159974 0.86902000 1.00000 0.00000             
O2    core 0.6457613 0.7406146 0.5094578 0.86902000 1.00000 0.00000             
O2    core 0.6468943 0.2402687 0.0092230 0.86902000 1.00000 0.00000             
O2    core 0.1556957 0.7420087 0.0160690 0.86902000 1.00000 0.00000             
O2    core 0.1551902 0.2420212 0.5145605 0.86902000 1.00000 0.00000             
O2    core 0.4054423 0.5078390 0.2666538 0.86902000 1.00000 0.00000             
O2    core 0.3974761 0.0094614 0.7602763 0.86902000 1.00000 0.00000             
O2    core 0.8963017 0.5092896 0.7581166 0.86902000 1.00000 0.00000             
O2    core 0.9035194 0.0077286 0.2695344 0.86902000 1.00000 0.00000             
O2    core 0.5990492 0.4903209 0.2600886 0.86902000 1.00000 0.00000             
O2    core 0.5913248 0.9916714 0.7642769 0.86902000 1.00000 0.00000             
O2    core 0.0899169 0.4920580 0.7640924 0.86902000 1.00000 0.00000             
O2    core 0.0982088 0.9904836 0.2575305 0.86902000 1.00000 0.00000             
O2    core 0.2119278 0.2846402 0.4589392 0.86902000 1.00000 0.00000             
O2    core 0.2125263 0.7845396 0.9596098 0.86902000 1.00000 0.00000             
O2    core 0.7059571 0.2834125 0.9665781 0.86902000 1.00000 0.00000             
O2    core 0.7052534 0.7837941 0.4680466 0.86902000 1.00000 0.00000             
O2    core 0.2895973 0.2162326 0.4662164 0.86902000 1.00000 0.00000             
O2    core 0.2899958 0.7161947 0.9677190 0.86902000 1.00000 0.00000             
O2    core 0.7836224 0.2150212 0.9589440 0.86902000 1.00000 0.00000             
O2    core 0.7827359 0.7154677 0.4595379 0.86902000 1.00000 0.00000             
O2    core 0.5398598 0.5335032 0.2180264 0.86902000 1.00000 0.00000             
O2    core 0.5347777 0.0344106 0.7111774 0.86902000 1.00000 0.00000             
O2    core 0.0330096 0.5346237 0.7083907 0.86902000 1.00000 0.00000             
O2    core 0.0389053 0.0335629 0.2150403 0.86902000 1.00000 0.00000             
O2    core 0.4621319 0.4652534 0.2101976 0.86902000 1.00000 0.00000             
O2    core 0.4561151 0.9663152 0.7165240 0.86902000 1.00000 0.00000             
O2    core 0.9556663 0.4661344 0.7162354 0.86902000 1.00000 0.00000             
O2    core 0.9615634 0.9653001 0.2094156 0.86902000 1.00000 0.00000             
O2    core 0.5229671 0.3640364 0.7106504 0.86902000 1.00000 0.00000             
O2    core 0.5215679 0.8645874 0.2113731 0.86902000 1.00000 0.00000             
O2    core 0.0213510 0.3643934 0.2155202 0.86902000 1.00000 0.00000             
O2    core 0.0225634 0.8643293 0.7171289 0.86902000 1.00000 0.00000             
O2    core 0.4737030 0.6353873 0.7111665 0.86902000 1.00000 0.00000             
O2    core 0.4726246 0.1355888 0.2101154 0.86902000 1.00000 0.00000             
O2    core 0.9726851 0.6356649 0.2164346 0.86902000 1.00000 0.00000             
O2    core 0.9739749 0.1352021 0.7155485 0.86902000 1.00000 0.00000             
O2    core 0.2238774 0.6145054 0.4661530 0.86902000 1.00000 0.00000             
O2    core 0.2238468 0.1143568 0.9602186 0.86902000 1.00000 0.00000             
O2    core 0.7225620 0.6141050 0.9610915 0.86902000 1.00000 0.00000             
O2    core 0.7227398 0.1140347 0.4647963 0.86902000 1.00000 0.00000             
O2    core 0.7718070 0.3853114 0.4604918 0.86902000 1.00000 0.00000             
O2    core 0.7715157 0.8855532 0.9667927 0.86902000 1.00000 0.00000             
O2    core 0.2725409 0.3855769 0.9660042 0.86902000 1.00000 0.00000             
O2    core 0.2727573 0.8858404 0.4615778 0.86902000 1.00000 0.00000             
O2    core 0.4581811 0.3016090 0.7209145 0.86902000 1.00000 0.00000             
O2    core 0.4580462 0.8022960 0.2212775 0.86902000 1.00000 0.00000             
O2    core 0.9569839 0.3009927 0.2334224 0.86902000 1.00000 0.00000             
O2    core 0.9569889 0.8007978 0.7352168 0.86902000 1.00000 0.00000             
O2    core 0.5372208 0.6976658 0.7208543 0.86902000 1.00000 0.00000             
O2    core 0.5373743 0.1979975 0.2205582 0.86902000 1.00000 0.00000             
O2    core 0.0381940 0.6991981 0.2346596 0.86902000 1.00000 0.00000             
O2    core 0.0385652 0.1986634 0.7331895 0.86902000 1.00000 0.00000             
O2    core 0.2883928 0.5510736 0.4840361 0.86902000 1.00000 0.00000             
O2    core 0.2876271 0.0519820 0.9698249 0.86902000 1.00000 0.00000             
O2    core 0.7871555 0.5517398 0.9709922 0.86902000 1.00000 0.00000             
O2    core 0.7883929 0.0505910 0.4822206 0.86902000 1.00000 0.00000             
O2    core 0.7080340 0.4475995 0.4705318 0.86902000 1.00000 0.00000             
O2    core 0.7073634 0.9490433 0.9805948 0.86902000 1.00000 0.00000             
O2    core 0.2070985 0.4491286 0.9842562 0.86902000 1.00000 0.00000             
O2    core 0.2079815 0.9482867 0.4718436 0.86902000 1.00000 0.00000             
O2    core 0.4263137 0.3294266 0.4134102 0.86902000 1.00000 0.00000             
O2    core 0.4247292 0.8297395 0.9125474 0.86902000 1.00000 0.00000             
O2    core 0.9267751 0.3285420 0.9153246 0.86902000 1.00000 0.00000             
O2    core 0.9280535 0.8285895 0.4179465 0.86902000 1.00000 0.00000             
O2    core 0.5707007 0.6702445 0.4119922 0.86902000 1.00000 0.00000             
O2    core 0.5694184 0.1702513 0.9125869 0.86902000 1.00000 0.00000             
O2    core 0.0672452 0.6713918 0.9173459 0.86902000 1.00000 0.00000             
O2    core 0.0687148 0.1711139 0.4149060 0.86902000 1.00000 0.00000             
O2    core 0.8192902 0.5795764 0.6637114 0.86902000 1.00000 0.00000             
O2    core 0.8171884 0.0784512 0.1660722 0.86902000 1.00000 0.00000             
O2    core 0.3185854 0.5785405 0.1654971 0.86902000 1.00000 0.00000             
O2    core 0.3209700 0.0794845 0.6611230 0.86902000 1.00000 0.00000             
O2    core 0.6762684 0.9211153 0.6667168 0.86902000 1.00000 0.00000             
O2    core 0.6747461 0.4201928 0.1615160 0.86902000 1.00000 0.00000             
O2    core 0.1760933 0.9204530 0.1646704 0.86902000 1.00000 0.00000             
O2    core 0.1781638 0.4212405 0.6673495 0.86902000 1.00000 0.00000             
O2    core 0.5715049 0.3372576 0.4067408 0.86902000 1.00000 0.00000             
O2    core 0.5698335 0.8378933 0.9070178 0.86902000 1.00000 0.00000             
O2    core 0.0703290 0.3392966 0.9023227 0.86902000 1.00000 0.00000             
O2    core 0.0716683 0.8392019 0.4039108 0.86902000 1.00000 0.00000             
O2    core 0.4255930 0.6621136 0.4068262 0.86902000 1.00000 0.00000             
O2    core 0.4242159 0.1623836 0.9063557 0.86902000 1.00000 0.00000             
O2    core 0.9235689 0.6608382 0.9036904 0.86902000 1.00000 0.00000             
O2    core 0.9252081 0.1602982 0.4021263 0.86902000 1.00000 0.00000             
O2    core 0.6740326 0.5873351 0.6573567 0.86902000 1.00000 0.00000             
O2    core 0.6734037 0.0888059 0.1525147 0.86902000 1.00000 0.00000             
O2    core 0.1750650 0.5893582 0.1530032 0.86902000 1.00000 0.00000             
O2    core 0.1758808 0.0875767 0.6558729 0.86902000 1.00000 0.00000             
O2    core 0.3218388 0.4106814 0.6531241 0.86902000 1.00000 0.00000             
O2    core 0.3212864 0.9125959 0.1576490 0.86902000 1.00000 0.00000             
O2    core 0.8198345 0.4120738 0.1561176 0.86902000 1.00000 0.00000             
O2    core 0.8201882 0.9107851 0.6536585 0.86902000 1.00000 0.00000             
O2    core 0.1783967 0.2577061 0.1368747 0.86902000 1.00000 0.00000             
O2    core 0.1788524 0.7576140 0.6378565 0.86902000 1.00000 0.00000             
O2    core 0.6753476 0.2565245 0.6414516 0.86902000 1.00000 0.00000             
O2    core 0.6746321 0.7569785 0.1423937 0.86902000 1.00000 0.00000             
O2    core 0.3202170 0.2430934 0.1409379 0.86902000 1.00000 0.00000             
O2    core 0.3206490 0.7429831 0.6420489 0.86902000 1.00000 0.00000             
O2    core 0.8171889 0.2419401 0.6369208 0.86902000 1.00000 0.00000             
O2    core 0.8164357 0.7423722 0.1377305 0.86902000 1.00000 0.00000             
O2    core 0.5705648 0.5066672 0.8926078 0.86902000 1.00000 0.00000             
O2    core 0.5671253 0.0075369 0.3875362 0.86902000 1.00000 0.00000             
O2    core 0.0667374 0.5077250 0.3863047 0.86902000 1.00000 0.00000             
O2    core 0.0709280 0.0070084 0.8888919 0.86902000 1.00000 0.00000             
O2    core 0.4286722 0.4922110 0.8884605 0.86902000 1.00000 0.00000             
O2    core 0.4249705 0.9932128 0.3921801 0.86902000 1.00000 0.00000             
O2    core 0.9250171 0.4929586 0.3907710 0.86902000 1.00000 0.00000             
O2    core 0.9289990 0.9931607 0.8924059 0.86902000 1.00000 0.00000             
O1    core 0.2735153 0.3180132 0.0634926 1.25000000 1.00000 0.00000             
H     core 0.2739691 0.3024584 0.9975464 0.40000000 1.00000 0.00000             
H     core 0.2992374 0.3283664 0.9667877 0.40000000 1.00000 0.00000             
O1    core 0.2727384 0.8177254 0.5633395 1.25000000 1.00000 0.00000             
H     core 0.2734759 0.8021519 0.4977736 0.40000000 1.00000 0.00000             
H     core 0.2974527 0.8281580 0.4652636 0.40000000 1.00000 0.00000             
O1    core 0.7743737 0.3173565 0.5669899 1.25000000 1.00000 0.00000             
H     core 0.7756329 0.3017362 0.5023137 0.40000000 1.00000 0.00000             
H     core 0.8010119 0.3276293 0.4716122 0.40000000 1.00000 0.00000             
O1    core 0.7743591 0.8179845 0.0687113 1.25000000 1.00000 0.00000             
H     core 0.7754167 0.8023517 0.0041871 0.40000000 1.00000 0.00000             
H     core 0.8014948 0.8281738 0.9737187 0.40000000 1.00000 0.00000             
O1    core 0.2212951 0.1822842 0.0663989 1.25000000 1.00000 0.00000             
H     core 0.2199890 0.1979169 0.0019795 0.40000000 1.00000 0.00000             
H     core 0.1946124 0.1720268 0.9710260 0.40000000 1.00000 0.00000             
O1    core 0.2206857 0.6820674 0.5682936 1.25000000 1.00000 0.00000             
H     core 0.2197128 0.6977075 0.5039279 0.40000000 1.00000 0.00000             
H     core 0.1932296 0.6719275 0.4736824 0.40000000 1.00000 0.00000             
O1    core 0.7221428 0.1816859 0.5628688 1.25000000 1.00000 0.00000             
H     core 0.7216560 0.1972627 0.4973543 0.40000000 1.00000 0.00000             
H     core 0.6964280 0.1713629 0.4659549 0.40000000 1.00000 0.00000             
O1    core 0.7226945 0.6822720 0.0628885 1.25000000 1.00000 0.00000             
H     core 0.7219216 0.6978635 0.9976772 0.40000000 1.00000 0.00000             
H     core 0.6979920 0.6718620 0.9646398 0.40000000 1.00000 0.00000             
O1    core 0.4710189 0.5675474 0.8179064 1.25000000 1.00000 0.00000             
H     core 0.4697973 0.5519112 0.7535329 0.40000000 1.00000 0.00000             
H     core 0.4443808 0.5777914 0.7223446 0.40000000 1.00000 0.00000             
O1    core 0.4724467 0.0678447 0.3126412 1.25000000 1.00000 0.00000             
H     core 0.4716353 0.0522578 0.2473563 0.40000000 1.00000 0.00000             
H     core 0.4473198 0.0782352 0.2150867 0.40000000 1.00000 0.00000             
O1    core 0.9718944 0.5679571 0.3135374 1.25000000 1.00000 0.00000             
H     core 0.9713725 0.5524081 0.2474718 0.40000000 1.00000 0.00000             
H     core 0.9462119 0.5783314 0.2169520 0.40000000 1.00000 0.00000             
O1    core 0.9712140 0.0677561 0.8166155 1.25000000 1.00000 0.00000             
H     core 0.9706400 0.0521229 0.7520009 0.40000000 1.00000 0.00000             
H     core 0.9439859 0.0778919 0.7215251 0.40000000 1.00000 0.00000             
O1    core 0.5227328 0.4320045 0.8128845 1.25000000 1.00000 0.00000             
H     core 0.5234738 0.4475989 0.7477460 0.40000000 1.00000 0.00000             
H     core 0.5475740 0.4216112 0.7147173 0.40000000 1.00000 0.00000             
O1    core 0.5245843 0.9322694 0.3179191 1.25000000 1.00000 0.00000             
H     core 0.5255246 0.9478275 0.2522046 0.40000000 1.00000 0.00000             
H     core 0.5520507 0.9220228 0.2241085 0.40000000 1.00000 0.00000             
O1    core 0.0245793 0.4321191 0.3173997 1.25000000 1.00000 0.00000             
H     core 0.0255391 0.4477465 0.2527881 0.40000000 1.00000 0.00000             
H     core 0.0519978 0.4219543 0.2228264 0.40000000 1.00000 0.00000             
O1    core 0.0241231 0.9319487 0.8159734 1.25000000 1.00000 0.00000             
H     core 0.0232730 0.9474056 0.7483458 0.40000000 1.00000 0.00000             
H     core 0.0497631 0.9215911 0.7191292 0.40000000 1.00000 0.00000             
O1    core 0.7030314 0.8473123 0.6899491 1.25000000 1.00000 0.00000             
H     core 0.6656665 0.8431654 0.7909063 0.40000000 1.00000 0.00000             
H     core 0.7351989 0.8581860 0.7649093 0.40000000 1.00000 0.00000             
O1    core 0.7045987 0.3469546 0.1882955 1.25000000 1.00000 0.00000             
H     core 0.6673652 0.3429006 0.2899657 0.40000000 1.00000 0.00000             
H     core 0.7377136 0.3575475 0.2630455 0.40000000 1.00000 0.00000             
O1    core 0.2040751 0.8477183 0.1860417 1.25000000 1.00000 0.00000             
H     core 0.1655999 0.8439499 0.2848819 0.40000000 1.00000 0.00000             
H     core 0.2365008 0.8584242 0.2618927 0.40000000 1.00000 0.00000             
O1    core 0.2028294 0.3475951 0.6857934 1.25000000 1.00000 0.00000             
H     core 0.1640536 0.3437136 0.7833292 0.40000000 1.00000 0.00000             
H     core 0.2346629 0.3583397 0.7631586 0.40000000 1.00000 0.00000             
O1    core 0.7912557 0.6522582 0.6855315 1.25000000 1.00000 0.00000             
H     core 0.8296050 0.6560662 0.7845791 0.40000000 1.00000 0.00000             
H     core 0.7588169 0.6415425 0.7612730 0.40000000 1.00000 0.00000             
O1    core 0.7927231 0.1520826 0.1849835 1.25000000 1.00000 0.00000             
H     core 0.8314725 0.1559432 0.2826151 0.40000000 1.00000 0.00000             
H     core 0.7606782 0.1414053 0.2623855 0.40000000 1.00000 0.00000             
O1    core 0.2922698 0.6528038 0.1894242 1.25000000 1.00000 0.00000             
H     core 0.3300161 0.6569131 0.2893441 0.40000000 1.00000 0.00000             
H     core 0.2597103 0.6422147 0.2661053 0.40000000 1.00000 0.00000             
O1    core 0.2911908 0.1526802 0.6876890 1.25000000 1.00000 0.00000             
H     core 0.3282759 0.1567991 0.7895333 0.40000000 1.00000 0.00000             
H     core 0.2580945 0.1420790 0.7624563 0.40000000 1.00000 0.00000             
O1    core 0.5409403 0.5970876 0.4389746 1.25000000 1.00000 0.00000             
H     core 0.5781889 0.5930332 0.5405347 0.40000000 1.00000 0.00000             
H     core 0.5078320 0.6076829 0.5138085 0.40000000 1.00000 0.00000             
O1    core 0.5413859 0.0977320 0.9344405 1.25000000 1.00000 0.00000             
H     core 0.5793685 0.0938178 0.0342522 0.40000000 1.00000 0.00000             
H     core 0.5087515 0.1084088 0.0100057 0.40000000 1.00000 0.00000             
O1    core 0.0424832 0.5975710 0.9362137 1.25000000 1.00000 0.00000             
H     core 0.0812658 0.5937105 0.0337260 0.40000000 1.00000 0.00000             
H     core 0.0106400 0.6083293 0.0134999 0.40000000 1.00000 0.00000             
O1    core 0.0427143 0.0968639 0.4380277 1.25000000 1.00000 0.00000             
H     core 0.0803740 0.0927198 0.5380996 0.40000000 1.00000 0.00000             
H     core 0.0103556 0.1075512 0.5143953 0.40000000 1.00000 0.00000             
O1    core 0.4540353 0.4020275 0.4351200 1.25000000 1.00000 0.00000             
H     core 0.4157976 0.4058748 0.5344709 0.40000000 1.00000 0.00000             
H     core 0.4865885 0.3913492 0.5108283 0.40000000 1.00000 0.00000             
O1    core 0.4541685 0.9027258 0.9387251 1.25000000 1.00000 0.00000             
H     core 0.4169531 0.9068953 0.0401207 0.40000000 1.00000 0.00000             
H     core 0.4872310 0.8921895 0.0142394 0.40000000 1.00000 0.00000             
O1    core 0.9531916 0.4027982 0.9387323 1.25000000 1.00000 0.00000             
H     core 0.9153599 0.4068957 0.0385155 0.40000000 1.00000 0.00000             
H     core 0.9856561 0.3921859 0.0154394 0.40000000 1.00000 0.00000             
O1    core 0.9527406 0.9023765 0.4374170 1.25000000 1.00000 0.00000             
H     core 0.9141246 0.9064767 0.5348498 0.40000000 1.00000 0.00000             
H     core 0.9845038 0.8916993 0.5156484 0.40000000 1.00000 0.00000             
O1    core 0.0577522 0.2696448 0.8702899 1.25000000 1.00000 0.00000             
H     core 0.0533969 0.2854860 0.8096876 0.40000000 1.00000 0.00000             
H     core 0.1062399 0.2699027 0.9343863 0.40000000 1.00000 0.00000             
O1    core 0.0581521 0.7695788 0.3723925 1.25000000 1.00000 0.00000             
H     core 0.0542913 0.7854371 0.3118895 0.40000000 1.00000 0.00000             
H     core 0.1066101 0.7696802 0.4366641 0.40000000 1.00000 0.00000             
O1    core 0.9371624 0.7304551 0.8722793 1.25000000 1.00000 0.00000             
H     core 0.9409858 0.7146036 0.8115928 0.40000000 1.00000 0.00000             
H     core 0.8886847 0.7303654 0.9365376 0.40000000 1.00000 0.00000             
O1    core 0.9378665 0.2300239 0.3702211 1.25000000 1.00000 0.00000             
H     core 0.9422007 0.2141834 0.3095529 0.40000000 1.00000 0.00000             
H     core 0.8893581 0.2297801 0.4342971 0.40000000 1.00000 0.00000             
O1    core 0.6837207 0.0192096 0.1059985 1.25000000 1.00000 0.00000             
H     core 0.6864834 0.0351955 0.0476580 0.40000000 1.00000 0.00000             
H     core 0.6354197 0.0189271 0.1712424 0.40000000 1.00000 0.00000             
O1    core 0.1873656 0.5197896 0.1209951 1.25000000 1.00000 0.00000             
H     core 0.1914705 0.5356461 0.0605732 0.40000000 1.00000 0.00000             
H     core 0.1388255 0.5199443 0.1848949 0.40000000 1.00000 0.00000             
O1    core 0.3078708 0.4804364 0.6217014 1.25000000 1.00000 0.00000             
H     core 0.3038689 0.4645988 0.5608242 0.40000000 1.00000 0.00000             
H     core 0.3562920 0.4802581 0.6861897 0.40000000 1.00000 0.00000             
O1    core 0.3174611 0.3585037 0.3634199 1.25000000 1.00000 0.00000             
H     core 0.3695267 0.3577953 0.3303267 0.40000000 1.00000 0.00000             
H     core 0.3109961 0.3742466 0.4233172 0.40000000 1.00000 0.00000             
O1    core 0.3163753 0.8585234 0.8578739 1.25000000 1.00000 0.00000             
H     core 0.3682780 0.8574953 0.8233741 0.40000000 1.00000 0.00000             
H     core 0.3116701 0.8740099 0.9237053 0.40000000 1.00000 0.00000             
O1    core 0.8167548 0.3580887 0.8579584 1.25000000 1.00000 0.00000             
H     core 0.8687978 0.3568825 0.8252006 0.40000000 1.00000 0.00000             
H     core 0.8120384 0.3737307 0.9209330 0.40000000 1.00000 0.00000             
O1    core 0.8175326 0.8584375 0.3652831 1.25000000 1.00000 0.00000             
H     core 0.8697020 0.8575893 0.3333934 0.40000000 1.00000 0.00000             
H     core 0.8111886 0.8742331 0.4242892 0.40000000 1.00000 0.00000             
O1    core 0.6790282 0.6414658 0.3573577 1.25000000 1.00000 0.00000             
H     core 0.6271387 0.6424949 0.3228083 0.40000000 1.00000 0.00000             
H     core 0.6837005 0.6259887 0.4233157 0.40000000 1.00000 0.00000             
O1    core 0.6783083 0.1412021 0.8619737 1.25000000 1.00000 0.00000             
H     core 0.6262696 0.1419952 0.8287445 0.40000000 1.00000 0.00000             
H     core 0.6843822 0.1255096 0.9230896 0.40000000 1.00000 0.00000             
O1    core 0.1780110 0.6415842 0.8642187 1.25000000 1.00000 0.00000             
H     core 0.1258354 0.6425420 0.8326489 0.40000000 1.00000 0.00000             
H     core 0.1841317 0.6257438 0.9223481 0.40000000 1.00000 0.00000             
O1    core 0.1788792 0.1415829 0.3577132 1.25000000 1.00000 0.00000             
H     core 0.1268605 0.1427748 0.3247129 0.40000000 1.00000 0.00000             
H     core 0.1835855 0.1259448 0.4207136 0.40000000 1.00000 0.00000             
O1    core 0.9281847 0.6085632 0.6136497 1.25000000 1.00000 0.00000             
H     core 0.8761292 0.6078828 0.5804899 0.40000000 1.00000 0.00000             
H     core 0.9346491 0.6242775 0.6741017 0.40000000 1.00000 0.00000             
O1    core 0.9282745 0.1080330 0.1142563 1.25000000 1.00000 0.00000             
H     core 0.8761811 0.1072387 0.0814021 0.40000000 1.00000 0.00000             
H     core 0.9347162 0.1238790 0.1720603 0.40000000 1.00000 0.00000             
O1    core 0.4285102 0.6081938 0.1089707 1.25000000 1.00000 0.00000             
H     core 0.3765016 0.6069744 0.0759334 0.40000000 1.00000 0.00000             
H     core 0.4331794 0.6238666 0.1713619 0.40000000 1.00000 0.00000             
O1    core 0.4286438 0.1085424 0.6069803 1.25000000 1.00000 0.00000             
H     core 0.3767424 0.1074480 0.5727034 0.40000000 1.00000 0.00000             
H     core 0.4331963 0.1240548 0.6723887 0.40000000 1.00000 0.00000             
O1    core 0.5672475 0.8916052 0.6092815 1.25000000 1.00000 0.00000             
H     core 0.6193020 0.8928885 0.5767721 0.40000000 1.00000 0.00000             
H     core 0.5626664 0.8759000 0.6710298 0.40000000 1.00000 0.00000             
O1    core 0.5665315 0.3913049 0.1071483 1.25000000 1.00000 0.00000             
H     core 0.6184133 0.3923831 0.0725076 0.40000000 1.00000 0.00000             
H     core 0.5619894 0.3758151 0.1729516 0.40000000 1.00000 0.00000             
O1    core 0.0670947 0.8914107 0.1150015 1.25000000 1.00000 0.00000             
H     core 0.1191223 0.8920876 0.0814348 0.40000000 1.00000 0.00000             
H     core 0.0606235 0.8756929 0.1753241 0.40000000 1.00000 0.00000             
O1    core 0.0672970 0.3915636 0.6132488 1.25000000 1.00000 0.00000             
H     core 0.1195206 0.3924885 0.5821630 0.40000000 1.00000 0.00000             
H     core 0.0610254 0.3757301 0.6714077 0.40000000 1.00000 0.00000             
O2    shel 0.5104316 0.8104775 0.6427670 -2.8690199 1.00000 0.00000             
O2    shel 0.5111690 0.3098486 0.1429202 -2.8690199 1.00000 0.00000             
O2    shel 0.0167318 0.8110488 0.1406826 -2.8690199 1.00000 0.00000             
O2    shel 0.0160252 0.3112150 0.6386266 -2.8690199 1.00000 0.00000             
O2    shel 0.4844086 0.1898101 0.6424782 -2.8690199 1.00000 0.00000             
O2    shel 0.4849338 0.6895028 0.1423692 -2.8690199 1.00000 0.00000             
O2    shel 0.9794334 0.1884149 0.1384060 -2.8690199 1.00000 0.00000             
O2    shel 0.9785584 0.6889713 0.6403606 -2.8690199 1.00000 0.00000             
O2    shel 0.7344606 0.5599714 0.3934596 -2.8690199 1.00000 0.00000             
O2    shel 0.7288318 0.0607268 0.8889992 -2.8690199 1.00000 0.00000             
O2    shel 0.2291858 0.5612533 0.8890447 -2.8690199 1.00000 0.00000             
O2    shel 0.2352561 0.0602303 0.3912030 -2.8690199 1.00000 0.00000             
O2    shel 0.2666968 0.4388371 0.3901102 -2.8690199 1.00000 0.00000             
O2    shel 0.2608307 0.9399936 0.8940020 -2.8690199 1.00000 0.00000             
O2    shel 0.7604913 0.4394554 0.8916661 -2.8690199 1.00000 0.00000             
O2    shel 0.7635806 0.9385822 0.3867050 -2.8690199 1.00000 0.00000             
O2    shel 0.4820472 0.8533454 0.6271553 -2.8690199 1.00000 0.00000             
O2    shel 0.4840867 0.3527622 0.1270679 -2.8690199 1.00000 0.00000             
O2    shel 0.9801761 0.8529883 0.1301546 -2.8690199 1.00000 0.00000             
O2    shel 0.9786375 0.3531246 0.6283941 -2.8690199 1.00000 0.00000             
O2    shel 0.5116242 0.1469076 0.6264204 -2.8690199 1.00000 0.00000             
O2    shel 0.5133033 0.6466282 0.1268207 -2.8690199 1.00000 0.00000             
O2    shel 0.0168957 0.1465115 0.1280541 -2.8690199 1.00000 0.00000             
O2    shel 0.0149726 0.6470304 0.6296300 -2.8690199 1.00000 0.00000             
O2    shel 0.7614160 0.6028801 0.3774838 -2.8690199 1.00000 0.00000             
O2    shel 0.7645839 0.1027276 0.8782870 -2.8690199 1.00000 0.00000             
O2    shel 0.2666814 0.6031603 0.8788374 -2.8690199 1.00000 0.00000             
O2    shel 0.2635537 0.1031221 0.3761625 -2.8690199 1.00000 0.00000             
O2    shel 0.2303404 0.3969091 0.3792606 -2.8690199 1.00000 0.00000             
O2    shel 0.2338329 0.8970796 0.8781440 -2.8690199 1.00000 0.00000             
O2    shel 0.7321767 0.3965609 0.8763190 -2.8690199 1.00000 0.00000             
O2    shel 0.7289415 0.8965801 0.3811038 -2.8690199 1.00000 0.00000             
O2    shel 0.7648061 0.7710881 0.8691553 -2.8690199 1.00000 0.00000             
O2    shel 0.7654653 0.2705826 0.3679653 -2.8690199 1.00000 0.00000             
O2    shel 0.2689022 0.7705199 0.3633579 -2.8690199 1.00000 0.00000             
O2    shel 0.2684021 0.2706963 0.8626751 -2.8690199 1.00000 0.00000             
O2    shel 0.7263591 0.7294583 0.8634467 -2.8690199 1.00000 0.00000             
O2    shel 0.7271706 0.2289379 0.3629347 -2.8690199 1.00000 0.00000             
O2    shel 0.2304252 0.7288941 0.3690416 -2.8690199 1.00000 0.00000             
O2    shel 0.2300527 0.2290549 0.8676980 -2.8690199 1.00000 0.00000             
O2    shel 0.4804294 0.5208271 0.6195355 -2.8690199 1.00000 0.00000             
O2    shel 0.4775286 0.0207695 0.1142627 -2.8690199 1.00000 0.00000             
O2    shel 0.9765742 0.5205883 0.1121448 -2.8690199 1.00000 0.00000             
O2    shel 0.9801026 0.0210338 0.6176901 -2.8690199 1.00000 0.00000             
O2    shel 0.5185766 0.4791587 0.6141114 -2.8690199 1.00000 0.00000             
O2    shel 0.5151437 0.9791149 0.1181978 -2.8690199 1.00000 0.00000             
O2    shel 0.0152743 0.4789868 0.1173974 -2.8690199 1.00000 0.00000             
O2    shel 0.0185191 0.9793516 0.6136337 -2.8690199 1.00000 0.00000             
O2    shel 0.3257934 0.3085989 0.6046262 -2.8690199 1.00000 0.00000             
O2    shel 0.3255030 0.8086671 0.1063310 -2.8690199 1.00000 0.00000             
O2    shel 0.8248423 0.3073548 0.1023181 -2.8690199 1.00000 0.00000             
O2    shel 0.8249385 0.8076440 0.6026869 -2.8690199 1.00000 0.00000             
O2    shel 0.6698112 0.6913148 0.6061768 -2.8690199 1.00000 0.00000             
O2    shel 0.6698206 0.1910558 0.1044505 -2.8690199 1.00000 0.00000             
O2    shel 0.1702874 0.6923672 0.1021774 -2.8690199 1.00000 0.00000             
O2    shel 0.1706891 0.1922868 0.6019089 -2.8690199 1.00000 0.00000             
O2    shel 0.4207019 0.5574993 0.3531339 -2.8690199 1.00000 0.00000             
O2    shel 0.4205945 0.0586257 0.8550875 -2.8690199 1.00000 0.00000             
O2    shel 0.9194597 0.5585792 0.8546504 -2.8690199 1.00000 0.00000             
O2    shel 0.9201296 0.0574942 0.3506546 -2.8690199 1.00000 0.00000             
O2    shel 0.5753459 0.4410955 0.3562339 -2.8690199 1.00000 0.00000             
O2    shel 0.5746167 0.9422837 0.8540952 -2.8690199 1.00000 0.00000             
O2    shel 0.0751949 0.4423640 0.8513141 -2.8690199 1.00000 0.00000             
O2    shel 0.0755710 0.9413471 0.3557217 -2.8690199 1.00000 0.00000             
O2    shel 0.6613057 0.3578374 0.6523073 -2.8690199 1.00000 0.00000             
O2    shel 0.6595796 0.8586386 0.1504522 -2.8690199 1.00000 0.00000             
O2    shel 0.1599308 0.3591314 0.1503035 -2.8690199 1.00000 0.00000             
O2    shel 0.1615412 0.8587792 0.6540596 -2.8690199 1.00000 0.00000             
O2    shel 0.3358079 0.6413508 0.6498954 -2.8690199 1.00000 0.00000             
O2    shel 0.3343570 0.1417976 0.1516658 -2.8690199 1.00000 0.00000             
O2    shel 0.8337215 0.6412093 0.1536311 -2.8690199 1.00000 0.00000             
O2    shel 0.8353612 0.1405645 0.6501560 -2.8690199 1.00000 0.00000             
O2    shel 0.5842237 0.6079423 0.9028110 -2.8690199 1.00000 0.00000             
O2    shel 0.5837621 0.1084955 0.4030431 -2.8690199 1.00000 0.00000             
O2    shel 0.0853321 0.6092001 0.4006946 -2.8690199 1.00000 0.00000             
O2    shel 0.0860410 0.1083553 0.8986350 -2.8690199 1.00000 0.00000             
O2    shel 0.9099670 0.8908652 0.9009969 -2.8690199 1.00000 0.00000             
O2    shel 0.9095975 0.3912969 0.3990458 -2.8690199 1.00000 0.00000             
O2    shel 0.4110977 0.8920138 0.4033295 -2.8690199 1.00000 0.00000             
O2    shel 0.4116206 0.3910940 0.9035648 -2.8690199 1.00000 0.00000             
O2    shel 0.5733379 0.7748770 0.3614175 -2.8690199 1.00000 0.00000             
O2    shel 0.5738430 0.2742984 0.8608719 -2.8690199 1.00000 0.00000             
O2    shel 0.0787184 0.7751259 0.8677572 -2.8690199 1.00000 0.00000             
O2    shel 0.0783133 0.2752263 0.3665744 -2.8690199 1.00000 0.00000             
O2    shel 0.4216955 0.2253377 0.3602146 -2.8690199 1.00000 0.00000             
O2    shel 0.4219335 0.7251062 0.8610905 -2.8690199 1.00000 0.00000             
O2    shel 0.9172378 0.2244245 0.8665202 -2.8690199 1.00000 0.00000             
O2    shel 0.9165330 0.7248794 0.3675625 -2.8690199 1.00000 0.00000             
O2    shel 0.1667689 0.5253082 0.6163373 -2.8690199 1.00000 0.00000             
O2    shel 0.1715964 0.0246739 0.1108799 -2.8690199 1.00000 0.00000             
O2    shel 0.6718935 0.5244011 0.1120315 -2.8690199 1.00000 0.00000             
O2    shel 0.6683927 0.0246282 0.6151322 -2.8690199 1.00000 0.00000             
O2    shel 0.8236229 0.4750534 0.6099922 -2.8690199 1.00000 0.00000             
O2    shel 0.8274470 0.9749254 0.1157367 -2.8690199 1.00000 0.00000             
O2    shel 0.3284927 0.4747738 0.1177676 -2.8690199 1.00000 0.00000             
O2    shel 0.3237437 0.9755323 0.6130583 -2.8690199 1.00000 0.00000             
O2    shel 0.0921877 0.3251723 0.2794652 -2.8690199 1.00000 0.00000             
O2    shel 0.0925113 0.8249812 0.7810460 -2.8690199 1.00000 0.00000             
O2    shel 0.5912670 0.3245168 0.7881794 -2.8690199 1.00000 0.00000             
O2    shel 0.5907879 0.8251845 0.2884220 -2.8690199 1.00000 0.00000             
O2    shel 0.4043221 0.1751092 0.2878806 -2.8690199 1.00000 0.00000             
O2    shel 0.4044807 0.6748088 0.7882253 -2.8690199 1.00000 0.00000             
O2    shel 0.9033555 0.1744777 0.7791962 -2.8690199 1.00000 0.00000             
O2    shel 0.9027322 0.6750030 0.2809845 -2.8690199 1.00000 0.00000             
O2    shel 0.1531105 0.5752605 0.5300471 -2.8690199 1.00000 0.00000             
O2    shel 0.1548146 0.0749086 0.0371570 -2.8690199 1.00000 0.00000             
O2    shel 0.6541599 0.5746178 0.0389443 -2.8690199 1.00000 0.00000             
O2    shel 0.6529347 0.0746621 0.5297915 -2.8690199 1.00000 0.00000             
O2    shel 0.8408974 0.4247625 0.5374123 -2.8690199 1.00000 0.00000             
O2    shel 0.8421177 0.9247664 0.0318614 -2.8690199 1.00000 0.00000             
O2    shel 0.3424907 0.4248962 0.0304638 -2.8690199 1.00000 0.00000             
O2    shel 0.3410289 0.9253425 0.5391579 -2.8690199 1.00000 0.00000             
O2    shel 0.8933331 0.8405288 0.7841636 -2.8690199 1.00000 0.00000             
O2    shel 0.8922499 0.3406665 0.2815131 -2.8690199 1.00000 0.00000             
O2    shel 0.3927294 0.8418532 0.2845124 -2.8690199 1.00000 0.00000             
O2    shel 0.3941808 0.3412456 0.7859035 -2.8690199 1.00000 0.00000             
O2    shel 0.6025516 0.6581047 0.7839214 -2.8690199 1.00000 0.00000             
O2    shel 0.6014735 0.1583499 0.2848391 -2.8690199 1.00000 0.00000             
O2    shel 0.1019086 0.6594818 0.2835836 -2.8690199 1.00000 0.00000             
O2    shel 0.1031692 0.1589676 0.7808734 -2.8690199 1.00000 0.00000             
O2    shel 0.3529919 0.5907685 0.5316232 -2.8690199 1.00000 0.00000             
O2    shel 0.3525893 0.0915994 0.0333112 -2.8690199 1.00000 0.00000             
O2    shel 0.8513845 0.5913289 0.0362162 -2.8690199 1.00000 0.00000             
O2    shel 0.8518269 0.0903292 0.5328787 -2.8690199 1.00000 0.00000             
O2    shel 0.6429747 0.4079860 0.5335611 -2.8690199 1.00000 0.00000             
O2    shel 0.6428524 0.9093369 0.0349217 -2.8690199 1.00000 0.00000             
O2    shel 0.1433061 0.4094404 0.0335324 -2.8690199 1.00000 0.00000             
O2    shel 0.1439660 0.9086669 0.5371121 -2.8690199 1.00000 0.00000             
O2    shel 0.3448454 0.2582322 0.5008883 -2.8690199 1.00000 0.00000             
O2    shel 0.3456380 0.7582189 0.0015327 -2.8690199 1.00000 0.00000             
O2    shel 0.8372064 0.2565976 0.0065430 -2.8690199 1.00000 0.00000             
O2    shel 0.8364046 0.7569705 0.5076814 -2.8690199 1.00000 0.00000             
O2    shel 0.6495780 0.7417691 0.5018476 -2.8690199 1.00000 0.00000             
O2    shel 0.6506864 0.2414217 0.0014261 -2.8690199 1.00000 0.00000             
O2    shel 0.1588441 0.7430407 0.0077657 -2.8690199 1.00000 0.00000             
O2    shel 0.1583398 0.2430546 0.5064182 -2.8690199 1.00000 0.00000             
O2    shel 0.4086033 0.5068054 0.2583661 -2.8690199 1.00000 0.00000             
O2    shel 0.4012639 0.0083085 0.7525491 -2.8690199 1.00000 0.00000             
O2    shel 0.9000853 0.5081328 0.7503938 -2.8690199 1.00000 0.00000             
O2    shel 0.9067372 0.0067555 0.2608428 -2.8690199 1.00000 0.00000             
O2    shel 0.5952367 0.4914771 0.2524062 -2.8690199 1.00000 0.00000             
O2    shel 0.5881171 0.9927428 0.7560816 -2.8690199 1.00000 0.00000             
O2    shel 0.0867777 0.4930924 0.7559027 -2.8690199 1.00000 0.00000             
O2    shel 0.0944909 0.9916469 0.2498822 -2.8690199 1.00000 0.00000             
O2    shel 0.2106712 0.2827739 0.4579612 -2.8690199 1.00000 0.00000             
O2    shel 0.2112564 0.7826945 0.9586427 -2.8690199 1.00000 0.00000             
O2    shel 0.7050318 0.2815788 0.9651763 -2.8690199 1.00000 0.00000             
O2    shel 0.7043260 0.7819469 0.4666192 -2.8690199 1.00000 0.00000             
O2    shel 0.2905167 0.2180639 0.4648060 -2.8690199 1.00000 0.00000             
O2    shel 0.2909190 0.7180359 0.9662920 -2.8690199 1.00000 0.00000             
O2    shel 0.7848772 0.2168810 0.9579668 -2.8690199 1.00000 0.00000             
O2    shel 0.7840012 0.7173111 0.4585748 -2.8690199 1.00000 0.00000             
O2    shel 0.5407772 0.5316705 0.2166356 -2.8690199 1.00000 0.00000             
O2    shel 0.5359695 0.0325521 0.7098632 -2.8690199 1.00000 0.00000             
O2    shel 0.0342905 0.5327596 0.7074066 -2.8690199 1.00000 0.00000             
O2    shel 0.0398767 0.0317440 0.2137737 -2.8690199 1.00000 0.00000             
O2    shel 0.4608889 0.4670987 0.2092297 -2.8690199 1.00000 0.00000             
O2    shel 0.4551641 0.9681520 0.7153078 -2.8690199 1.00000 0.00000             
O2    shel 0.9547332 0.4679771 0.7148011 -2.8690199 1.00000 0.00000             
O2    shel 0.9602625 0.9671768 0.2083871 -2.8690199 1.00000 0.00000             
O2    shel 0.5255266 0.3620085 0.7135521 -2.8690199 1.00000 0.00000             
O2    shel 0.5240937 0.8625828 0.2142247 -2.8690199 1.00000 0.00000             
O2    shel 0.0238871 0.3624075 0.2172238 -2.8690199 1.00000 0.00000             
O2    shel 0.0251179 0.8623218 0.7187947 -2.8690199 1.00000 0.00000             
O2    shel 0.4711849 0.6373952 0.7139894 -2.8690199 1.00000 0.00000             
O2    shel 0.4700814 0.1376165 0.2130253 -2.8690199 1.00000 0.00000             
O2    shel 0.9701343 0.6376741 0.2181650 -2.8690199 1.00000 0.00000             
O2    shel 0.9714583 0.1371932 0.7171812 -2.8690199 1.00000 0.00000             
O2    shel 0.2213520 0.6125177 0.4678311 -2.8690199 1.00000 0.00000             
O2    shel 0.2213362 0.1123452 0.9630449 -2.8690199 1.00000 0.00000             
O2    shel 0.7199978 0.6120784 0.9640085 -2.8690199 1.00000 0.00000             
O2    shel 0.7201665 0.1120295 0.4666190 -2.8690199 1.00000 0.00000             
O2    shel 0.7743191 0.3873208 0.4633274 -2.8690199 1.00000 0.00000             
O2    shel 0.7740306 0.8875369 0.9685420 -2.8690199 1.00000 0.00000             
O2    shel 0.2750991 0.3875842 0.9677384 -2.8690199 1.00000 0.00000             
O2    shel 0.2753172 0.8878696 0.4644809 -2.8690199 1.00000 0.00000             
O2    shel 0.4568227 0.3034871 0.7216139 -2.8690199 1.00000 0.00000             
O2    shel 0.4565996 0.8041592 0.2219781 -2.8690199 1.00000 0.00000             
O2    shel 0.9557995 0.3028399 0.2325177 -2.8690199 1.00000 0.00000             
O2    shel 0.9558747 0.8026479 0.7342682 -2.8690199 1.00000 0.00000             
O2    shel 0.5386744 0.6958040 0.7215818 -2.8690199 1.00000 0.00000             
O2    shel 0.5387447 0.1961211 0.2212392 -2.8690199 1.00000 0.00000             
O2    shel 0.0393236 0.6973463 0.2337163 -2.8690199 1.00000 0.00000             
O2    shel 0.0397455 0.1968133 0.7322744 -2.8690199 1.00000 0.00000             
O2    shel 0.2895679 0.5529168 0.4830819 -2.8690199 1.00000 0.00000             
O2    shel 0.2890708 0.0538522 0.9705252 -2.8690199 1.00000 0.00000             
O2    shel 0.7885384 0.5536167 0.9717490 -2.8690199 1.00000 0.00000             
O2    shel 0.7894589 0.0524199 0.4813662 -2.8690199 1.00000 0.00000             
O2    shel 0.7066042 0.4457378 0.4712318 -2.8690199 1.00000 0.00000             
O2    shel 0.7061077 0.9472236 0.9800575 -2.8690199 1.00000 0.00000             
O2    shel 0.2059641 0.4472723 0.9833358 -2.8690199 1.00000 0.00000             
O2    shel 0.2066182 0.9464103 0.4725767 -2.8690199 1.00000 0.00000             
O2    shel 0.4307888 0.3289256 0.4205002 -2.8690199 1.00000 0.00000             
O2    shel 0.4292628 0.8292790 0.9197993 -2.8690199 1.00000 0.00000             
O2    shel 0.9310375 0.3281493 0.9222552 -2.8690199 1.00000 0.00000             
O2    shel 0.9322651 0.8281703 0.4247164 -2.8690199 1.00000 0.00000             
O2    shel 0.5661567 0.6707038 0.4192515 -2.8690199 1.00000 0.00000             
O2    shel 0.5649324 0.1707479 0.9197126 -2.8690199 1.00000 0.00000             
O2    shel 0.0630306 0.6718173 0.9241280 -2.8690199 1.00000 0.00000             
O2    shel 0.0644518 0.1715041 0.4218255 -2.8690199 1.00000 0.00000             
O2    shel 0.8148022 0.5790679 0.6708072 -2.8690199 1.00000 0.00000             
O2    shel 0.8129765 0.0780238 0.1728332 -2.8690199 1.00000 0.00000             
O2    shel 0.3143227 0.5781587 0.1724746 -2.8690199 1.00000 0.00000             
O2    shel 0.3164379 0.0790215 0.6684245 -2.8690199 1.00000 0.00000             
O2    shel 0.6804973 0.9215705 0.6739968 -2.8690199 1.00000 0.00000             
O2    shel 0.6792836 0.4206469 0.1687840 -2.8690199 1.00000 0.00000             
O2    shel 0.1805670 0.9209525 0.1717048 -2.8690199 1.00000 0.00000             
O2    shel 0.1823703 0.4216756 0.6740666 -2.8690199 1.00000 0.00000             
O2    shel 0.5663150 0.3376520 0.4155312 -2.8690199 1.00000 0.00000             
O2    shel 0.5646678 0.8382764 0.9156122 -2.8690199 1.00000 0.00000             
O2    shel 0.0652528 0.3394749 0.9118563 -2.8690199 1.00000 0.00000             
O2    shel 0.0665901 0.8393799 0.4136391 -2.8690199 1.00000 0.00000             
O2    shel 0.4307490 0.6617276 0.4154316 -2.8690199 1.00000 0.00000             
O2    shel 0.4293984 0.1619924 0.9151330 -2.8690199 1.00000 0.00000             
O2    shel 0.9286529 0.6606561 0.9133992 -2.8690199 1.00000 0.00000             
O2    shel 0.9302699 0.1601265 0.4116901 -2.8690199 1.00000 0.00000             
O2    shel 0.6792248 0.5877345 0.6661464 -2.8690199 1.00000 0.00000             
O2    shel 0.6785210 0.0890027 0.1621914 -2.8690199 1.00000 0.00000             
O2    shel 0.1801319 0.5895361 0.1625058 -2.8690199 1.00000 0.00000             
O2    shel 0.1810372 0.0879675 0.6644588 -2.8690199 1.00000 0.00000             
O2    shel 0.3167496 0.4105045 0.6628675 -2.8690199 1.00000 0.00000             
O2    shel 0.3160941 0.9122015 0.1664649 -2.8690199 1.00000 0.00000             
O2    shel 0.8146794 0.4116861 0.1647142 -2.8690199 1.00000 0.00000             
O2    shel 0.8151542 0.9105863 0.6632826 -2.8690199 1.00000 0.00000             
O2    shel 0.1827475 0.2577247 0.1464330 -2.8690199 1.00000 0.00000             
O2    shel 0.1831917 0.7576281 0.6474181 -2.8690199 1.00000 0.00000             
O2    shel 0.6798276 0.2565595 0.6502530 -2.8690199 1.00000 0.00000             
O2    shel 0.6791141 0.7570159 0.1511607 -2.8690199 1.00000 0.00000             
O2    shel 0.3157426 0.2430638 0.1497870 -2.8690199 1.00000 0.00000             
O2    shel 0.3161719 0.7429513 0.6508612 -2.8690199 1.00000 0.00000             
O2    shel 0.8128407 0.2419227 0.6465171 -2.8690199 1.00000 0.00000             
O2    shel 0.8120987 0.7423604 0.1473309 -2.8690199 1.00000 0.00000             
O2    shel 0.5660624 0.5067052 0.9014147 -2.8690199 1.00000 0.00000             
O2    shel 0.5628506 0.0075594 0.3973079 -2.8690199 1.00000 0.00000             
O2    shel 0.0624044 0.5077363 0.3958829 -2.8690199 1.00000 0.00000             
O2    shel 0.0664382 0.0070320 0.8985126 -2.8690199 1.00000 0.00000             
O2    shel 0.4330230 0.4921897 0.8980309 -2.8690199 1.00000 0.00000             
O2    shel 0.4295528 0.9931720 0.4008181 -2.8690199 1.00000 0.00000             
O2    shel 0.9294746 0.4929325 0.3995901 -2.8690199 1.00000 0.00000             
O2    shel 0.9334298 0.9930016 0.9019860 -2.8690199 1.00000 0.00000             
O1    shel 0.2740052 0.3179232 0.0608098 -2.0499999 1.00000 0.00000             
O1    shel 0.2732181 0.8176367 0.5606132 -2.0499999 1.00000 0.00000             
O1    shel 0.7749065 0.3172626 0.5644147 -2.0499999 1.00000 0.00000             
O1    shel 0.7748938 0.8178889 0.0661639 -2.0499999 1.00000 0.00000             
O1    shel 0.2207582 0.1823786 0.0638311 -2.0499999 1.00000 0.00000             
O1    shel 0.2201465 0.6821639 0.5657637 -2.0499999 1.00000 0.00000             
O1    shel 0.7216506 0.1817772 0.5601929 -2.0499999 1.00000 0.00000             
O1    shel 0.7222126 0.6823615 0.0601697 -2.0499999 1.00000 0.00000             
O1    shel 0.4704875 0.5674518 0.8153341 -2.0499999 1.00000 0.00000             
O1    shel 0.4719549 0.0677532 0.3099647 -2.0499999 1.00000 0.00000             
O1    shel 0.9714027 0.5678684 0.3108495 -2.0499999 1.00000 0.00000             
O1    shel 0.9706918 0.0676607 0.8140730 -2.0499999 1.00000 0.00000             
O1    shel 0.5232166 0.4320955 0.8101754 -2.0499999 1.00000 0.00000             
O1    shel 0.5251291 0.9323649 0.3153667 -2.0499999 1.00000 0.00000             
O1    shel 0.0251177 0.4322138 0.3148639 -2.0499999 1.00000 0.00000             
O1    shel 0.0245639 0.9320340 0.8132161 -2.0499999 1.00000 0.00000             
O1    shel 0.7030119 0.8473818 0.6933009 -2.0499999 1.00000 0.00000             
O1    shel 0.7046019 0.3470188 0.1916991 -2.0499999 1.00000 0.00000             
O1    shel 0.2040271 0.8477977 0.1894485 -2.0499999 1.00000 0.00000             
O1    shel 0.2027642 0.3476728 0.6891644 -2.0499999 1.00000 0.00000             
O1    shel 0.7912992 0.6521794 0.6889515 -2.0499999 1.00000 0.00000             
O1    shel 0.7927802 0.1520056 0.1883747 -2.0499999 1.00000 0.00000             
O1    shel 0.2922881 0.6527395 0.1928066 -2.0499999 1.00000 0.00000             
O1    shel 0.2911828 0.1526175 0.6911092 -2.0499999 1.00000 0.00000             
O1    shel 0.5409369 0.5971518 0.4423734 -2.0499999 1.00000 0.00000             
O1    shel 0.5414136 0.0978047 0.9378628 -2.0499999 1.00000 0.00000             
O1    shel 0.0425486 0.5976504 0.9395912 -2.0499999 1.00000 0.00000             
O1    shel 0.0427338 0.0969306 0.4414222 -2.0499999 1.00000 0.00000             
O1    shel 0.4539983 0.4019518 0.4385421 -2.0499999 1.00000 0.00000             
O1    shel 0.4541754 0.9026669 0.9421340 -2.0499999 1.00000 0.00000             
O1    shel 0.9531674 0.4027329 0.9421114 -2.0499999 1.00000 0.00000             
O1    shel 0.9526820 0.9023064 0.4408071 -2.0499999 1.00000 0.00000             
O1    shel 0.0587676 0.2700213 0.8705102 -2.0499999 1.00000 0.00000             
O1    shel 0.0591789 0.7699519 0.3726044 -2.0499999 1.00000 0.00000             
O1    shel 0.9361330 0.7300819 0.8724843 -2.0499999 1.00000 0.00000             
O1    shel 0.9368486 0.2296473 0.3704377 -2.0499999 1.00000 0.00000             
O1    shel 0.6827272 0.0195816 0.1065141 -2.0499999 1.00000 0.00000             
O1    shel 0.1863425 0.5201635 0.1212009 -2.0499999 1.00000 0.00000             
O1    shel 0.3088939 0.4800610 0.6219197 -2.0499999 1.00000 0.00000             
O1    shel 0.3182935 0.3587697 0.3643822 -2.0499999 1.00000 0.00000             
O1    shel 0.3172635 0.8587754 0.8589891 -2.0499999 1.00000 0.00000             
O1    shel 0.8176335 0.3583410 0.8590422 -2.0499999 1.00000 0.00000             
O1    shel 0.8183555 0.8586984 0.3662447 -2.0499999 1.00000 0.00000             
O1    shel 0.6781383 0.6412141 0.3584767 -2.0499999 1.00000 0.00000             
O1    shel 0.6774628 0.1409387 0.8629715 -2.0499999 1.00000 0.00000             
O1    shel 0.1771782 0.6413212 0.8651766 -2.0499999 1.00000 0.00000             
O1    shel 0.1780006 0.1413304 0.3587888 -2.0499999 1.00000 0.00000             
O1    shel 0.9273521 0.6088285 0.6146265 -2.0499999 1.00000 0.00000             
O1    shel 0.9274436 0.1083022 0.1151577 -2.0499999 1.00000 0.00000             
O1    shel 0.4276316 0.6084468 0.1100270 -2.0499999 1.00000 0.00000             
O1    shel 0.4277548 0.1087932 0.6080853 -2.0499999 1.00000 0.00000             
O1    shel 0.5681169 0.8913527 0.6103392 -2.0499999 1.00000 0.00000             
O1    shel 0.5674245 0.3910535 0.1082584 -2.0499999 1.00000 0.00000             
O1    shel 0.0679326 0.8911428 0.1159610 -2.0499999 1.00000 0.00000             
O1    shel 0.0681271 0.3913000 0.6142258 -2.0499999 1.00000 0.00000             
totalenergy        -14486.0001157014 eV
species  13
P      core    5.000000                  
Si     core    4.000000                  
Al     core    3.000000                  
O2     core    0.869020                  
O2     shel   -2.869020                  
Na     core    1.000000                  
K      core    1.000000                  
Li     core    1.000000                  
Mg     core    2.000000                  
Ca     core    2.000000                  
H      core    0.400000                  
O1     core    1.250000                  
O1     shel   -2.050000                  
buck     
Si    core O2    shel  1283.90700     0.320520  10.66200      0.00 20.00
buck     
Al    core O2    shel  1460.30000     0.299120  0.000000      0.00 20.00
buck     
O2    shel O2    shel  22764.0000     0.149000  27.88000      0.00 20.00
buck     
Na    core O2    shel  1226.84000     0.306500  0.000000      0.00 20.00
buck     
Ca    core O2    shel  1090.40000     0.343700  0.000000      0.00 16.00
buck     
Li    core O2    shel  1303.90000     0.260000  0.000000      0.00 20.00
buck     
K     core O2    shel  1000.30000     0.361980  10.56900      0.00 20.00
buck     
Mg    core O2    shel  1428.50000     0.294530  0.000000      0.00 20.00
spring
O2     74.920000    
buck     
Al    core O1    shel  1460.30000     0.299120  0.000000      0.00 16.00
buck     
Na    core O1    shel  450.498000     0.306500  0.000000      0.00 20.00
buck     
Li    core O1    shel  1303.90000     0.260000  0.000000      0.00 20.00
buck     
K     core O1    shel  1000.30000     0.361980  10.56900      0.00 20.00
buck     
Ca    core O1    shel  435.070000     0.343700  0.000000      0.00 12.00
buck     
Si    core O1    shel  1283.90700     0.320520  10.66200      0.00 16.00
buck     
O1    shel O2    shel  22764.3000     0.149000  28.92000      0.00 16.00
buck inter     
H     core O1    shel  396.270000     0.250000  10.00000      0.00 20.00
buck     
H     core O2    shel  396.270000     0.250000  0.000000      0.00 10.00
spring
O1     209.44960    
morse intra     
H     core O1    shel 6.2037100     2.2200      0.92376  0.5000  0.000  1.100
morse intra     
H     core H     core 0.0000000     2.8405      1.50000  0.5000  0.000  1.650
lennard 12  6     
O1    shel O1    shel  39344.980      42.150000      0.000 20.000
three       regular  
Al    core O2    shel O2    shel 2.0972      109.47000 &
  0.000  1.900  0.000  1.900  0.000  3.500
three       regular  
Si    core O2    shel O2    shel 2.0972      109.47000 &
  0.000  1.900  0.000  1.900  0.000  4.000
three intra regular  
O1    shel H     core H     core 4.1998      108.69000 &
  0.000  1.500  0.000  1.500  0.000  2.000
nobond Si    core Si    core
nobond Al    core Si    core
nobond Na    core Si    core
nobond Si    core Ca    core
nobond Si    core K     core
nobond H     core Si    core
nobond O1    core Si    core
nobond Si    core O1    shel
nobond O2    core Si    core
nobond Si    core O2    shel
nobond Al    core Al    core
nobond Na    core Al    core
nobond Al    core Ca    core
nobond Al    core K     core
nobond H     core Al    core
nobond O1    core Al    core
nobond Al    core O1    shel
nobond O2    core Al    core
nobond Al    core O2    shel
nobond Na    core Na    core
nobond Na    core Ca    core
nobond Na    core K     core
nobond H     core Na    core
nobond O1    core Na    core
nobond Na    core O1    shel
nobond O2    core Na    core
nobond Na    core O2    shel
nobond Ca    core Ca    core
nobond K     core Ca    core
nobond H     core Ca    core
nobond O1    core Ca    core
nobond Ca    core O1    shel
nobond O2    core Ca    core
nobond Ca    core O2    shel
nobond K     core K     core
nobond H     core K     core
nobond O1    core K     core
nobond K     core O1    shel
nobond O2    core K     core
nobond K     core O2    shel
nobond H     core H     core
nobond H     core O2    core
nobond H     core O2    shel
nobond O2    core O2    core
nobond O2    core O2    shel
nobond O1    core O2    core
nobond O2    core O1    shel
nobond O2    shel O2    shel
nobond O1    core O2    shel
nobond O1    shel O2    shel
nobond O1    core O1    core
nobond O1    shel O1    shel
stepmx opt     0.100000
maxcyc opt     3000
maxcyc fit     3000
rspeed .10000    
dump every      1 mes08_N39.dump                                              
output xtl mes08_N39.xtl                                               
