539
-14422.0050099046
Si     4.600277    14.083464     0.000000
Si     4.625746    42.257296     3.325220
Si    13.777486    14.069277     3.289080
Si    13.798617    42.261821     0.019759
Si     9.203416    28.162170     4.978635
Si     9.164458     0.012943     1.743640
Si     0.026815    28.166548     1.714832
Si     0.011685     0.023542     5.009922
Si     9.248570    18.726008     1.768094
Si     9.200261    46.907805     5.039732
Si    18.357351    18.718844     5.011122
Si     0.096932    46.912392     1.793700
Si     9.153744    37.607050     1.784435
Si     9.174374     9.453095     5.006203
Si     0.053023    37.606280     5.027894
Si    18.340060     9.457173     1.732197
Si    13.765137    32.865191     3.427171
Si    13.750126     4.782016     0.186174
Si     4.611509    32.901731     0.198208
Si     4.577995     4.785649     3.460929
Si     4.637982    23.462013     3.419428
Si     4.635690    51.616280     0.219135
Si    13.791672    23.429422     0.187756
Si    13.835940    51.653115     3.442385
Si     2.886854    14.916124     2.436111
Si     2.912358    43.065767     5.766184
Si    12.070442    14.880634     5.728698
Si    12.086867    43.117806     2.452522
Si     6.316403    13.235886     2.432558
Si     6.341691    41.448375     5.763030
Si    15.501512    13.250836     5.725821
Si    15.512400    41.402161     2.449584
Si    10.912646    29.007016     0.870235
Si    10.878735     0.868613     4.176546
Si     1.743452    29.014926     4.149386
Si     1.715334     0.863495     0.904705
Si     7.489815    27.325186     0.869809
Si     7.499673    55.503798     4.179576
Si    16.662052    27.311121     4.148676
Si    16.690777    55.509539     0.898685
Si    10.881815    19.506674     4.201741
Si    10.842158    47.749218     0.945989
Si     1.648897    19.553761     0.918051
Si     1.727978    47.692410     4.227604
Si     7.524166    36.820937     4.218372
Si     7.512516     8.647035     0.901228
Si    16.755999    36.772634     0.933990
Si    16.685981     8.648742     4.169952
Si    12.133469    33.671599     5.869513
Si    12.077681     5.505093     2.637099
Si     2.956231    33.644866     2.650540
Si     2.901710     5.503899     5.910887
Si    15.467969    50.838986     5.882507
Si    15.449076    22.682817     2.637612
Si     6.293590    50.873731     2.669225
Si     6.271910    22.651613     5.859560
Si     7.449480    18.010043     4.205770
Si     7.421714    46.230810     0.942719
Si    16.579933    18.037432     0.913760
Si    16.647608    46.194906     4.231639
Si    10.953970    38.320039     4.222320
Si    10.962499    10.118354     0.898839
Si     1.826996    38.291933     0.930710
Si     1.780958    10.122027     4.167516
Si     6.386867    32.145929     2.639626
Si     6.336521     3.993517     5.903075
Si    15.540300    32.115263     5.876166
Si    15.511394     3.992864     2.628326
Si    12.017560    24.183383     2.631061
Si    12.060648    52.398849     5.893400
Si     2.864500    24.207960     5.871012
Si     2.861896    52.370043     2.662735
Al    14.523174    43.932938     4.059385
Al    14.478541    15.763730     0.812917
Al     5.316719    43.958818     0.849813
Al     5.313622    15.754259     4.052999
Al    13.077231    40.584158     4.056751
Al    13.085876    12.374191     0.810808
Al     3.931890    40.564277     0.847263
Al     3.888726    12.387746     4.049265
Al     8.479561    29.846915     2.479919
Al     8.439112     1.696388     5.782059
Al    17.654095    29.838451     5.751225
Al    17.618937     1.697441     2.507943
Al     9.924436    26.482587     2.476158
Al     9.944280    54.674098     5.776858
Al     0.751640    26.485328     5.747851
Al     0.773537    54.669593     2.506165
Al    17.601447    48.599742     5.842568
Al    17.554145    20.446333     2.514544
Al     8.399230    48.639486     2.542888
Al     8.405720    20.414000     5.817057
Al    10.001397    35.911921     5.829947
Al     9.947514     7.716960     2.503456
Al     0.850602    35.880024     2.527107
Al     0.773354     7.718959     5.773288
Al     5.455674    34.547649     4.250822
Al     5.406681     6.412324     0.963981
Al    14.618269    34.544759     0.928137
Al    14.585315     6.406652     4.232153
Al    12.950355    21.779277     4.237412
Al    12.978488    49.978810     0.940610
Al     3.782213    21.787849     0.917765
Al     3.795680    49.966524     4.268873
Al     9.884639    45.267628     2.549281
Al     9.912527    17.043040     5.808985
Al     0.757970    45.227418     5.835238
Al     0.691026    17.072075     2.522021
Al     8.516414    11.103441     2.515846
Al     8.494111    39.284326     5.829368
Al    17.687857    11.108803     5.785674
Al    17.714807    39.251980     2.541022
Al     3.898796    31.192915     4.241252
Al     3.850411     3.062127     0.964085
Al    13.065123    31.191038     0.931591
Al    13.027020     3.055582     4.231429
Al    14.506901    25.132746     4.233175
Al    14.532008    53.331129     0.948504
Al     5.335354    25.142403     0.926541
Al     5.348857    53.322116     4.264887
Na     8.726749    14.578887     4.082558
Na     8.771628    42.795847     0.829344
Na    17.928969    14.597715     0.794184
Na    17.914959    42.750772     4.113108
Na     9.685393    41.767786     4.112833
Na     9.643285    13.567115     0.801383
Na     0.476452    41.730683     0.827897
Na     0.475940    13.587616     4.068136
Na     5.070762    28.711116     2.523105
Na     5.041188     0.548224     5.831036
Na    14.253146    28.673787     5.794460
Na    14.209108     0.558814     2.538371
Na    13.333648    27.622313     2.521826
Na    13.350325    55.842945     5.814237
Na     4.152795    27.652753     5.794359
Na     4.174060    55.822021     2.564497
Ca     4.315542    18.512436     2.467945
Ca     4.325869    46.571555     5.704043
Ca    13.486504    18.377791     5.666995
Ca    13.511667    46.698494     2.492774
Ca     4.941367     9.742468     2.447865
Ca     4.923539    37.952412     5.681599
Ca    14.116797     9.746305     5.703689
Ca    14.089463    37.826959     2.482206
Ca     9.482948    32.584912     0.872879
Ca     9.438218     4.416904     4.162843
Ca     0.292795    32.596372     4.162831
Ca     0.259870     4.422302     0.887584
Ca     8.917464    23.753564     0.862437
Ca     8.955726    51.923059     4.181236
Ca    18.111159    23.734019     4.152824
Ca    18.112021    51.940569     0.892917
O2     9.553325    45.570200     4.222641
O2     9.593200    17.404332     0.928638
O2     0.440808    45.590214     0.954953
O2     0.357950    17.381375     4.193195
O2     8.828705    10.793298     4.188063
O2     8.807173    38.929492     0.947820
O2    17.994315    10.796610     0.913708
O2    18.048054    38.944503     4.213142
O2    13.402233    31.550977     2.590238
O2    13.376016     3.482498     5.865376
O2     4.241508    31.593377     5.885638
O2     4.201242     3.494492     2.595380
O2     5.001375    24.776853     2.584602
O2     5.008759    52.912741     5.907343
O2    14.166184    24.726080     5.876475
O2    14.198242    52.968907     2.607967
O2     8.933506    19.992360     0.863942
O2     8.948579    48.153674     4.100299
O2    18.105737    19.966153     4.073306
O2    18.131301    48.178553     0.889069
O2     0.219893     8.211710     0.788170
O2     0.303928    36.361174     4.086794
O2     9.401014     8.208219     4.060965
O2     9.468688    36.341970     0.877891
O2    14.103551    34.137935     2.531218
O2    14.177537     6.055582     5.875768
O2     5.034266    34.164670     5.878090
O2     5.001041     6.067848     2.610144
O2     4.297084    22.190642     2.521761
O2     4.218517    50.340534     5.898316
O2    13.373702    22.154940     5.866051
O2    13.495923    50.382466     2.543462
O2    14.165286    43.540972     5.695075
O2    14.089472    15.370140     2.431071
O2     4.928228    43.559805     2.466890
O2     4.961501    15.378928     5.694335
O2    13.437042    40.971259     5.693160
O2    13.466567    12.770458     2.429366
O2     4.321651    40.954342     2.466710
O2     4.269609    12.800851     5.661843
O2     8.850687    29.450322     4.111055
O2     8.793363     1.294598     0.872297
O2    18.002322    29.449872     0.847116
O2    17.990464     1.306648     4.141586
O2     9.554785    26.874865     4.108535
O2     9.591029    55.063892     0.875630
O2     0.398805    26.884257     0.844187
O2     0.416196    55.070731     4.139215
O2     5.997893    17.344847     3.938578
O2     5.937635    45.589150     0.657394
O2    15.098285    17.394854     0.622443
O2    15.197448    45.529147     3.963766
O2    12.403795    38.987142     3.957262
O2    12.454690    10.745420     0.622305
O2     3.310407    38.934566     0.646596
O2     3.269256    10.751064     3.885423
O2     7.832011    31.454809     2.388482
O2     7.778591     3.297597     5.671443
O2    16.984016    31.434527     5.623788
O2    16.953091     3.295844     2.391108
O2    10.572373    24.874368     2.381225
O2    10.616322    53.078930     5.641030
O2     1.420652    24.888199     5.620144
O2     1.416045    53.058847     2.413814
O2    12.389330    20.105772     4.333290
O2    12.340541    48.352062     0.988828
O2     3.146249    20.159829     0.964495
O2     3.235155    48.292474     4.363171
O2     6.016471    36.220873     4.350440
O2     5.985035     8.085546     1.018515
O2    15.257097    36.170695     0.976206
O2    15.160346     8.081593     4.291520
O2    10.647116    34.298140     5.915352
O2    10.581740     6.108710     2.648900
O2     1.468271    34.263458     2.673344
O2     1.406319     6.109272     5.919150
O2    16.954160    50.212177     5.928703
O2    16.936497    22.062741     2.659575
O2     7.782064    50.255569     2.692242
O2     7.759063    22.026456     5.904462
O2    10.570404    43.659176     2.403415
O2    10.553936    15.416319     5.697658
O2     1.396222    43.598928     5.724805
O2     1.370503    15.458198     2.387622
O2     7.837937    12.713765     2.381399
O2     7.857147    40.912966     5.721833
O2    17.020897    12.727350     5.664040
O2    17.028727    40.860024     2.399149
O2     3.261147    29.561565     4.122741
O2     3.225248     1.424449     0.883523
O2    12.418766    29.567837     0.821855
O2    12.392793     1.422165     4.142834
O2    15.144498    26.763780     4.120109
O2    15.183063    54.951373     0.837981
O2     5.983389    26.764508     0.820692
O2     5.983353    54.954613     4.153327
O2     1.813477    18.247298     1.882814
O2     1.928280    46.361747     5.173466
O2    11.083049    18.176406     5.147357
O2    11.005092    46.444871     1.912830
O2     7.350783     9.956889     1.879696
O2     7.323563    38.150628     5.165163
O2    16.520781     9.964495     5.142308
O2    16.594351    38.075044     1.903270
O2     2.737725    32.308478     3.563269
O2     2.680642     4.165275     0.272531
O2    11.937203    32.359434     0.273552
O2    11.861285     4.162086     3.542463
O2    15.667487    24.017902     3.551878
O2    15.656847    52.160888     0.289261
O2     6.461939    23.974960     0.264378
O2     6.511388    52.209780     3.582263
O2    16.472621    47.426724     5.230183
O2    16.430912    19.299769     1.856095
O2     7.275266    47.496430     1.880291
O2     7.275826    19.242409     5.203599
O2    11.129739    37.084044     5.216158
O2    11.075770     8.850838     1.835668
O2     1.973691    37.023845     1.865422
O2     1.899696     8.855776     5.106975
O2     6.602681    33.413103     3.596164
O2     6.537366     5.263271     0.322611
O2    15.731030    33.360808     0.320828
O2    15.716579     5.256726     3.589912
O2    11.802405    22.914734     3.586599
O2    11.864847    51.163262     0.335847
O2     2.668518    22.971305     0.312035
O2     2.647816    51.101372     3.618418
O2     6.296453    14.501504     3.402158
O2     6.315567    42.723113     0.189536
O2    15.475937    14.526520     0.152560
O2    15.514038    42.691117     3.396694
O2    12.085570    41.826398     3.397112
O2    12.093515    13.612942     0.147985
O2     2.933397    41.802362     0.192073
O2     2.890182    13.613809     3.369348
O2     7.475383    28.613526     1.818555
O2     7.436470     0.468888     5.112883
O2    16.655170    28.604241     5.089008
O2    16.617580     0.458305     1.853524
O2    10.928483    27.715736     1.815653
O2    10.943124    55.911075     5.119091
O2     1.751238    27.718040     5.085147
O2     1.779029    55.895157     1.835542
O2     3.905350    16.037592     3.023143
O2     3.926618    44.223002     6.317408
O2    13.088018    16.033968     6.281379
O2    13.113292    44.235167     3.033646
O2     5.297337    12.086305     2.995536
O2     5.326973    40.290323     6.312693
O2    14.490666    12.093093     6.287790
O2    14.486527    40.282906     3.029249
O2     9.883381    30.125398     1.443694
O2     9.848608     1.981543     4.755423
O2     0.716427    30.126748     4.732021
O2     0.676024     1.970048     1.477894
O2     8.519182    26.204463     1.440553
O2     8.529716    54.393200     4.760306
O2    17.688997    26.196722     4.728171
O2    17.714596    54.386540     1.475088
O2     9.751215    20.477619     4.727697
O2     9.728756    48.759408     1.438788
O2     0.533845    20.561946     1.410261
O2     0.596662    48.663063     4.752152
O2     8.653885    35.847824     4.742679
O2     8.598848     7.620102     1.412838
O2    17.868749    35.760339     1.424969
O2    17.773729     7.624776     4.683447
O2     4.067903    34.590165     3.251387
O2     4.001324     6.449588     6.534149
O2    13.276645    34.637234     6.387291
O2    13.178996     6.451365     3.256867
O2    14.337518    21.736375     3.237369
O2    14.324326    49.871690     6.397570
O2     5.130420    21.683493     6.377436
O2     5.183703    49.926082     3.269911
O2     8.501807    16.937938     4.798896
O2     8.443556    45.142313     1.557940
O2    17.602891    16.948301     1.526257
O2    17.698807    45.121742     4.824102
O2     9.902152    39.390093     4.817941
O2     9.946926    11.215581     1.515386
O2     0.805047    39.378320     1.548537
O2     0.765275    11.219554     4.782900
O2     5.330483    31.096567     3.254176
O2     5.270563     2.947024     6.504633
O2    14.480384    31.055997     6.468150
O2    14.447625     2.945281     3.232842
O2    13.074971    25.230693     3.246669
O2    13.120000    53.456933     6.488345
O2     3.924682    25.265398     6.465211
O2     3.917891    53.418948     3.277817
O2     7.958442    18.500318     2.730088
O2     7.887335    46.643330     5.971997
O2    17.045885    18.457037     5.945139
O2    17.157445    46.688492     2.757073
O2    10.444262    37.830015     2.746195
O2    10.494515     9.706941     5.927954
O2     1.367112    37.868984     5.959116
O2     1.306480     9.709201     2.657778
O2    15.043230    32.621386     4.399523
O2    15.030808     4.477737     1.145820
O2     5.898659    32.613514     1.155923
O2     5.859071     4.480865     4.419633
O2    12.558819    51.894500     4.416572
O2    12.505422    23.715173     1.147262
O2     3.349882    51.900870     1.179122
O2     3.361302    23.704176     4.393392
O2    10.591970    19.061373     2.660911
O2    10.530968    47.251037     5.954353
O2     1.340640    19.058809     5.924783
O2     1.441353    47.248423     2.685753
O2     7.811589    37.266578     2.677641
O2     7.844271     9.134431     5.928073
O2    17.073006    37.260356     5.943192
O2    17.008080     9.135830     2.651492
O2    12.422625    33.232334     4.314009
O2    12.420185     5.109233     1.088046
O2     3.283606    33.230472     1.101836
O2     3.247252     5.110388     4.362387
O2     5.980994    23.090283     4.304124
O2     5.965387    51.286278     1.120264
O2    15.120667    23.098063     1.089232
O2    15.178579    51.281064     4.327495
O2     3.306388    14.496973     0.913922
O2     3.324700    42.635006     4.249480
O2    12.474347    14.459386     4.207583
O2    12.508651    42.692101     0.932073
O2     5.892266    13.659915     0.918099
O2     5.929326    41.877375     4.245943
O2    15.073630    13.682626     4.214549
O2    15.089774    41.828697     0.929772
O2    10.498121    28.574812     5.890935
O2    10.455969     0.448060     2.653888
O2     1.320394    28.599518     2.624265
O2     1.309708     0.445209     5.916572
O2     7.909492    27.746513     5.891132
O2     7.921865    55.916522     2.653259
O2    17.084224    27.730247     2.624824
O2    17.123426    55.935497     5.925972
O1     5.174302    17.907429     0.451585
H      5.187375    17.030720     0.020166
H      5.672290    18.482291     6.379362
O1    14.360775    46.085822     0.468656
H     14.372103    45.210789     0.033524
H     14.859566    46.661702     6.397818
O1    13.238910    38.438567     0.458616
H     13.226335    39.315536     0.027331
H     12.745185    37.852811     6.386197
O1     8.687701    31.980724     5.378987
H      8.658821    31.096958     4.963675
H      8.200768    32.558568     4.755438
O1     8.570267     3.791283     2.166105
H      8.561681     2.907951     1.750087
H      8.129752     4.372175     1.512238
O1    17.765085    31.964945     2.164006
H     17.774793    31.086192     1.737086
H     17.316511    32.544988     1.514239
O1    17.740016     3.797891     5.434722
H     17.744022     2.919763     5.008002
H     17.293692     4.381155     4.786912
O1     9.718227    24.343682     5.369056
H      9.747387    25.228651     4.956243
H     10.207795    23.768074     4.745601
O1     9.835506    52.550996     2.183856
H      9.823439    53.429432     1.756395
H     10.286482    51.971947     1.534959
O1     0.632832    24.367608     2.153607
H      0.623589    25.248259     1.730544
H      1.079066    23.789633     1.500501
O1     0.558529    52.535888     5.398333
H      0.595133    53.423211     4.991078
H      1.044910    51.960614     4.772061
O1    12.992416    47.687657     4.528816
H     12.250602    47.487640     5.132842
H     13.568164    48.277578     5.059486
O1     3.798680    19.494906     4.504743
H      3.055024    19.296508     5.106915
H      4.374483    20.083648     5.036584
O1    14.612658    36.830536     4.515389
H     15.354684    37.031194     5.118994
H     14.036781    36.241766     5.047088
O1     9.977566    33.625519     2.896805
H     10.705950    33.438198     3.520903
H      9.365582    34.186550     3.417843
O1     9.863249     5.359443     6.231411
H     10.657274     5.323670     0.253369
H      9.242853     5.930583     0.199069
O1     0.736888    33.520633     6.234990
H      1.531932    33.465028     0.253776
H      0.143594    34.125799     0.196326
O1     0.690720     5.359116     2.956751
H      1.488853     5.318597     3.519552
H      0.074794     5.926185     3.466243
O1     8.422601    22.705129     2.883549
H      7.694913    22.893993     3.508023
H      9.036465    22.147796     3.406275
O1     8.512969    50.993003     6.250735
H      7.711806    51.060578     0.269248
H      9.101072    50.401655     0.212819
O1    17.669942    22.799394     6.221635
H     16.869255    22.867166     0.240800
H     18.257531    22.206391     0.182329
O1    17.620918    50.886739     2.911667
H     16.894798    51.076999     3.537504
H     18.235236    50.329024     3.433446
O1    10.293315    15.170783     2.440077
H     10.212590    16.063641     2.042198
H     11.172461    15.193110     2.871751
O1    10.332263    43.386209     5.726681
H     10.236735    44.274972     5.322490
H     11.211038    43.428125     6.157576
O1     1.141141    15.198686     5.696026
H      1.043676    16.087819     5.293206
H      2.015490    15.245145     6.135251
O1     1.129965    43.343906     2.465860
H      1.043018    44.236336     2.068014
H      2.009078    43.372008     2.897299
O1     8.122584    41.175580     2.462778
H      8.208517    40.284036     2.062870
H      7.243371    41.147719     2.894055
O1     8.083836    12.980330     5.704686
H      8.173279    12.091055     5.300373
H      7.202215    12.948216     6.130239
O1    17.272037    41.126847     5.723578
H     17.366644    40.239062     5.317154
H     16.392919    41.085220     6.153835
O1    17.262657    12.997327     2.428788
H     17.359115    12.108372     2.025114
H     16.385691    12.955510     2.862902
O1    12.702728    29.291545     4.117377
H     12.802026    30.179059     3.711113
H     11.824070    29.336552     4.549074
O1    12.665562     1.208534     0.869848
H     12.764632     2.103193     0.478841
H     11.780005     1.241942     1.289260
O1     3.522774    29.335750     0.860890
H      3.617394    30.231899     0.472534
H      2.638382    29.365838     1.282669
O1     3.507635     1.204778     4.143358
H      3.620374     2.096437     3.749243
H      2.625742     1.255734     4.568422
O1     5.701999    27.035414     4.116174
H      5.604055    26.148977     3.707352
H      6.581443    26.991399     4.546430
O1     5.712772    55.192176     0.887627
H      5.611214    54.298061     0.496338
H      6.596824    55.153964     1.309490
O1    14.879290    26.996331     0.857672
H     14.785779    26.101332     0.466499
H     15.764580    26.967068     1.277701
O1    14.901850    55.227641     4.140716
H     14.810229    54.339676     3.733590
H     15.783694    55.192530     4.567090
O1     5.928524    20.158975     2.424167
H      6.874276    20.122678     2.182562
H      5.815720    21.047027     2.817035
O1    15.123426    48.344424     2.443939
H     16.070545    48.305716     2.207968
H     15.010553    49.233278     2.835159
O1    12.480650    36.177355     2.430418
H     11.533824    36.217323     2.193370
H     12.591397    35.289959     2.825444
O1    17.066570    34.289524     4.069732
H     16.118067    34.244629     3.840472
H     17.185727    35.192807     4.423199
O1    17.071204     6.117052     0.754120
H     16.130298     6.045185     0.500496
H     17.153195     7.005268     1.151953
O1     7.932655    34.263273     0.740401
H      6.986968    34.186803     0.505520
H      8.007572    35.134886     1.175735
O1     7.903639     6.114654     4.021256
H      6.962463     6.040842     3.769137
H      7.983214     7.000736     4.424344
O1    10.532430    50.227969     4.085092
H     11.481139    50.274863     3.856947
H     10.414632    49.324703     4.438972
O1    10.466542    22.071981     0.726018
H     11.412709    22.150444     0.493566
H     10.393011    21.201642     1.164066
O1     1.311135    50.259364     0.750375
H      2.257867    50.339193     0.520809
H      1.237792    49.389345     1.189110
O1     1.336753    22.039958     4.052209
H      2.286003    22.087098     3.826605
H      1.218946    21.137625     4.408454

