153
-4750.0007084663
Si    -0.000086     0.081594     0.000000
Si    -0.001986     9.362842     3.308786
Si     4.562404     4.731472     1.666177
Si     4.488515    14.025331     4.882363
Si     9.085109     0.068347     3.233766
Si     9.134077     9.393239     0.014855
Si    13.642043     4.731594     4.935374
Si    13.663586    14.045146     1.614977
Si     2.792500     4.002744     4.095358
Si     2.792365    13.296875     0.771036
Si     7.355468     0.829217     5.649090
Si     7.344414    10.132328     2.440185
Si    11.903989     3.985730     0.829242
Si    11.916473    13.289044     4.034678
Si    16.446959     0.806687     2.418792
Si    16.412353    10.094383     5.736131
Si     1.636143     8.611524     5.753214
Si     1.722927    17.902164     2.446336
Si     6.192634     5.506055     4.110201
Si     6.253152    14.777396     0.791637
Si    10.751947     8.599427     2.456399
Si    10.803979    17.882566     5.680353
Si    15.302661     5.480282     0.845302
Si    15.378616    14.740362     4.052805
Al     0.700107     1.761967     4.042863
Al     0.664334    11.063716     0.851309
Al     5.205317     3.042638     5.740448
Al     5.226960    12.360928     2.396084
Al     9.812488     1.749770     0.742008
Al     9.769921    11.071823     4.072384
Al    14.304415     3.022803     2.480706
Al    14.335438    12.341051     5.664009
Al     3.782996     6.416638     5.717692
Al     3.849256    15.738409     2.386116
Al     8.327027     7.712611     4.060636
Al     8.416708    16.922326     0.738354
Al    12.893250     6.396312     2.451751
Al    12.949901    15.720104     5.654841
Al    17.440117     7.683794     0.828302
Al    17.499241    16.919282     4.042287
Ca     4.353585     0.629486     3.717026
Ca     4.213915     9.727173     0.776512
Ca     8.750702     4.400147     5.672660
Ca     8.833388    13.575801     2.194613
Ca    13.448827     0.586004     0.490168
Ca    13.299418     9.702170     4.046110
Ca    17.848066     4.386309     2.423336
Ca    17.983088    13.476200     5.349618
O2     0.307495     1.396109     5.668560
O2     0.250036    10.710958     2.479131
O2     4.826917     3.382585     0.839565
O2     4.823754    12.708237     4.025864
O2     9.419302     1.375089     2.365307
O2     9.417547    10.742706     5.724616
O2    13.891092     3.384374     4.105549
O2    13.970793    12.729403     0.749220
O2     4.346668     6.014095     0.764848
O2     4.233889    15.314870     4.006017
O2     8.856401     8.132498     5.634341
O2     8.802132    17.314247     2.370512
O2    13.426651     6.018150     4.037783
O2    13.390746    15.340007     0.747743
O2    17.970439     8.075038     2.411859
O2    17.865817    17.337575     5.666182
O2     1.302212     3.401541     3.896997
O2     1.285057    12.688044     0.592247
O2     5.843819     1.425990     5.466577
O2     5.853980    10.730636     2.232826
O2    10.415923     3.388647     0.614802
O2    10.404919    12.694829     3.866779
O2    14.932653     1.398697     2.236581
O2    14.922192    10.695016     5.538253
O2     3.147607     8.040714     5.797813
O2     3.275200    17.406629     2.446046
O2     7.700659     6.085827     4.156457
O2     7.792867    15.287485     0.792250
O2    12.257703     8.018838     2.519085
O2    12.356758    17.381835     5.692165
O2    16.811275     6.057370     0.901650
O2    16.924181    15.254290     4.098427
O2     1.913900     0.690786     3.391339
O2     1.794092     9.883388     0.234141
O2     6.325744     4.231989     5.126203
O2     6.416651    13.469134     1.773616
O2    11.019673     0.664361     0.096921
O2    10.884929     9.886108     3.454157
O2    15.429074     4.203497     1.858332
O2    15.546554    13.402618     4.991220
O2     2.700977     5.190948     5.145398
O2     2.784875    14.555321     1.719658
O2     7.241211     8.924993     3.468963
O2     7.375643    18.126208     0.083119
O2    11.810765     5.163985     1.891994
O2    11.861683    14.512106     5.047000
O2    16.353677     8.906874     0.259717
O2    16.430716    18.091617     3.366899
O2     3.846394     2.857121     4.611294
O2     3.824395    12.156087     1.329550
O2     8.385176     1.975086     6.202219
O2     8.381438    11.270664     2.995267
O2    12.951042     2.832697     1.343259
O2    12.934694    12.140230     4.596352
O2    17.471936     1.953186     2.979841
O2    17.463423    11.244468     6.244019
O2     0.543575     7.565541     6.233875
O2     0.750108    16.846843     3.091636
O2     5.094296     6.547709     4.587927
O2     5.261039    15.832653     1.411413
O2     9.645890     7.569530     2.941113
O2     9.818419    16.828942     6.314388
O2    14.203233     6.520978     1.321581
O2    14.355360    15.764845     4.670765
O2     3.253080     4.513181     2.625127
O2     3.130462    13.698732     5.761809
O2     7.735680     0.409293     4.117233
O2     7.832471     9.638694     0.972467
O2    12.337707     4.522661     5.902026
O2    12.340326    13.745989     2.540702
O2    16.825972     0.413679     0.880057
O2    16.866003     9.572363     4.267495
O2     1.339427     9.131055     4.238431
O2     1.260461    18.387278     0.979633
O2     5.900988     4.979337     2.596343
O2     5.765631    14.264327     5.864658
O2    10.469670     9.105378     0.934555
O2    10.350604    18.368475     4.209601
O2    14.987044     4.970285     5.859419
O2    14.975006    14.277258     2.559414
O1     0.684814     3.929799     0.471535
H      0.673210     3.044931     0.050906
H      1.092120     4.506694     6.341556
O1     5.201124    10.180253     5.355378
H      5.189640    11.067917     4.940233
H      5.635151     9.611625     4.687135
O1    10.034113    13.241673     0.395377
H     10.104441    12.373304     6.499807
H     10.414807    13.883131     6.308291
O1     9.756850     3.926241     3.718525
H      9.736709     3.043389     3.293897
H     10.215344     4.492763     3.064820
O1    14.292046    10.178706     2.089844
H     14.281742    11.066091     1.674667
H     14.726190     9.608973     1.422441
O1     3.916693     8.641564     2.763366
H      3.138289     8.733260     3.349993
H      4.492239     8.016249     3.250146
O1     8.472536     5.480074     1.124391
H      7.689182     5.380742     1.703282
H      9.045350     6.095378     1.626722
O1    12.999737     8.613730     6.023331
H     12.249172     8.705460     0.072466
H     13.570470     7.987994     6.514893
O1    17.549743     5.475538     4.403277
H     16.771200     5.378299     4.988621
H     18.122931     6.099834     4.893780

