# 
# Keywords:
# 
opti molq nosym full phonon conp  
# 
# Options:
# 
title
LAU structure (ignoring K ) starting from                                       
Armbruster (N Jb Miner Mh 1992)                                                 
end
cell
  14.580337  13.010961  14.889736  89.972594 111.634558  90.050153
fractional  1   
Si    core 0.2361000 0.3816000 0.0726999 4.00000000 1.00000 0.00000             
Si    core 0.2364068 0.3837023 0.5717576 4.00000000 1.00000 0.00000             
Si    core 0.7342347 0.8840721 0.0732672 4.00000000 1.00000 0.00000             
Si    core 0.7358028 0.8841898 0.5727350 4.00000000 1.00000 0.00000             
Si    core 0.7479946 0.3836124 0.4173585 4.00000000 1.00000 0.00000             
Si    core 0.7495236 0.3835017 0.9153563 4.00000000 1.00000 0.00000             
Si    core 0.2470639 0.8835741 0.4175780 4.00000000 1.00000 0.00000             
Si    core 0.2483419 0.8827131 0.9168072 4.00000000 1.00000 0.00000             
Si    core 0.7499458 0.6196448 0.4163303 4.00000000 1.00000 0.00000             
Si    core 0.7504399 0.6196075 0.9161860 4.00000000 1.00000 0.00000             
Si    core 0.2477706 0.1191934 0.4174285 4.00000000 1.00000 0.00000             
Si    core 0.2465653 0.1177155 0.9165008 4.00000000 1.00000 0.00000             
Si    core 0.2373202 0.6170041 0.0719674 4.00000000 1.00000 0.00000             
Si    core 0.2360663 0.6190053 0.5725065 4.00000000 1.00000 0.00000             
Si    core 0.7333574 0.1194965 0.0734947 4.00000000 1.00000 0.00000             
Si    core 0.7340778 0.1196253 0.5738001 4.00000000 1.00000 0.00000             
Si    core 0.0766744 0.3840313 0.1570082 4.00000000 1.00000 0.00000             
Si    core 0.0791952 0.3815048 0.6582026 4.00000000 1.00000 0.00000             
Si    core 0.5759991 0.8817152 0.1571524 4.00000000 1.00000 0.00000             
Si    core 0.5788571 0.8801678 0.6584320 4.00000000 1.00000 0.00000             
Si    core 0.9044598 0.3800513 0.3299119 4.00000000 1.00000 0.00000             
Si    core 0.9082056 0.3823951 0.8318194 4.00000000 1.00000 0.00000             
Si    core 0.4054162 0.8803409 0.3322199 4.00000000 1.00000 0.00000             
Si    core 0.4073554 0.8840765 0.8320689 4.00000000 1.00000 0.00000             
Si    core 0.9075457 0.6154629 0.3302063 4.00000000 1.00000 0.00000             
Si    core 0.9089357 0.6179315 0.8312628 4.00000000 1.00000 0.00000             
Si    core 0.4053440 0.1145031 0.3315845 4.00000000 1.00000 0.00000             
Si    core 0.4064132 0.1190702 0.8330000 4.00000000 1.00000 0.00000             
Si    core 0.0776341 0.6192182 0.1562232 4.00000000 1.00000 0.00000             
Si    core 0.0783088 0.6153941 0.6575425 4.00000000 1.00000 0.00000             
Si    core 0.5749661 0.1173894 0.1579487 4.00000000 1.00000 0.00000             
Si    core 0.5761603 0.1151817 0.6591408 4.00000000 1.00000 0.00000             
Al    core 0.1181157 0.3099630 0.3615401 3.00000000 1.00000 0.00000             
Al    core 0.1205556 0.3090333 0.8618569 3.00000000 1.00000 0.00000             
Al    core 0.6182469 0.8100179 0.3633854 3.00000000 1.00000 0.00000             
Al    core 0.6193438 0.8099048 0.8631737 3.00000000 1.00000 0.00000             
Al    core 0.8648424 0.3086613 0.1255683 3.00000000 1.00000 0.00000             
Al    core 0.8665574 0.3089458 0.6271213 3.00000000 1.00000 0.00000             
Al    core 0.3634964 0.8095515 0.1270965 3.00000000 1.00000 0.00000             
Al    core 0.3653772 0.8096193 0.6276424 3.00000000 1.00000 0.00000             
Al    core 0.8668329 0.6947841 0.1263856 3.00000000 1.00000 0.00000             
Al    core 0.8671346 0.6945131 0.6266839 3.00000000 1.00000 0.00000             
Al    core 0.3620203 0.1884795 0.1272351 3.00000000 1.00000 0.00000             
Al    core 0.3639204 0.1924828 0.6276891 3.00000000 1.00000 0.00000             
Al    core 0.1201490 0.6913107 0.3621658 3.00000000 1.00000 0.00000             
Al    core 0.1215269 0.6890950 0.8617611 3.00000000 1.00000 0.00000             
Al    core 0.6165982 0.1933980 0.3631287 3.00000000 1.00000 0.00000             
Al    core 0.6172801 0.1941262 0.8631136 3.00000000 1.00000 0.00000             
O2    core 0.2631592 0.4992290 0.1113189 0.86902000 1.00000 0.00000             
O2    core 0.2609102 0.5014119 0.6124541 0.86902000 1.00000 0.00000             
O2    core 0.7556043 0.0019967 0.1140089 0.86902000 1.00000 0.00000             
O2    core 0.7578306 0.0018520 0.6140749 0.86902000 1.00000 0.00000             
O2    core 0.7241832 0.5016633 0.3777534 0.86902000 1.00000 0.00000             
O2    core 0.7273264 0.5019010 0.8758825 0.86902000 1.00000 0.00000             
O2    core 0.2225339 0.0014204 0.3783767 0.86902000 1.00000 0.00000             
O2    core 0.2229701 0.0001822 0.8766485 0.86902000 1.00000 0.00000             
O2    core 0.2041773 0.3793596 0.4564453 0.86902000 1.00000 0.00000             
O2    core 0.2096086 0.3744522 0.9582881 0.86902000 1.00000 0.00000             
O2    core 0.7038727 0.8802798 0.4575788 0.86902000 1.00000 0.00000             
O2    core 0.7035445 0.8804882 0.9581774 0.86902000 1.00000 0.00000             
O2    core 0.7798558 0.3786164 0.0303656 0.86902000 1.00000 0.00000             
O2    core 0.7810949 0.3788213 0.5325245 0.86902000 1.00000 0.00000             
O2    core 0.2762190 0.8768701 0.0313464 0.86902000 1.00000 0.00000             
O2    core 0.2779745 0.8775007 0.5325127 0.86902000 1.00000 0.00000             
O2    core 0.7815794 0.6248647 0.0314293 0.86902000 1.00000 0.00000             
O2    core 0.7800631 0.6266251 0.5313960 0.86902000 1.00000 0.00000             
O2    core 0.2732611 0.1227098 0.0315140 0.86902000 1.00000 0.00000             
O2    core 0.2757471 0.1254191 0.5324567 0.86902000 1.00000 0.00000             
O2    core 0.2088074 0.6251484 0.4575079 0.86902000 1.00000 0.00000             
O2    core 0.2084917 0.6221389 0.9569017 0.86902000 1.00000 0.00000             
O2    core 0.7027086 0.1249072 0.4584272 0.86902000 1.00000 0.00000             
O2    core 0.7029605 0.1249053 0.9582593 0.86902000 1.00000 0.00000             
O2    core 0.1419908 0.3807137 0.2714101 0.86902000 1.00000 0.00000             
O2    core 0.1442093 0.3818739 0.7728913 0.86902000 1.00000 0.00000             
O2    core 0.6404458 0.8790826 0.2718207 0.86902000 1.00000 0.00000             
O2    core 0.6447500 0.8785781 0.7729313 0.86902000 1.00000 0.00000             
O2    core 0.8392754 0.3781238 0.2152742 0.86902000 1.00000 0.00000             
O2    core 0.8435660 0.3799613 0.7173358 0.86902000 1.00000 0.00000             
O2    core 0.3394718 0.8779847 0.2178559 0.86902000 1.00000 0.00000             
O2    core 0.3421981 0.8809510 0.7176923 0.86902000 1.00000 0.00000             
O2    core 0.8430977 0.6231445 0.2159760 0.86902000 1.00000 0.00000             
O2    core 0.8434021 0.6229327 0.7167119 0.86902000 1.00000 0.00000             
O2    core 0.3381182 0.1177380 0.2173434 0.86902000 1.00000 0.00000             
O2    core 0.3407895 0.1220759 0.7184991 0.86902000 1.00000 0.00000             
O2    core 0.1439694 0.6228359 0.2710496 0.86902000 1.00000 0.00000             
O2    core 0.1457831 0.6195732 0.7714991 0.86902000 1.00000 0.00000             
O2    core 0.6400368 0.1225766 0.2726391 0.86902000 1.00000 0.00000             
O2    core 0.6398153 0.1207941 0.7738080 0.86902000 1.00000 0.00000             
O2    core 0.1442696 0.3402176 0.0994011 0.86902000 1.00000 0.00000             
O2    core 0.1467686 0.3388744 0.6004989 0.86902000 1.00000 0.00000             
O2    core 0.6463757 0.8360978 0.1030227 0.86902000 1.00000 0.00000             
O2    core 0.6473254 0.8363956 0.6019179 0.86902000 1.00000 0.00000             
O2    core 0.8358372 0.3371705 0.3866107 0.86902000 1.00000 0.00000             
O2    core 0.8387079 0.3371848 0.8869052 0.86902000 1.00000 0.00000             
O2    core 0.3369169 0.8384635 0.3893182 0.86902000 1.00000 0.00000             
O2    core 0.3388883 0.8395755 0.8887744 0.86902000 1.00000 0.00000             
O2    core 0.8407598 0.6627530 0.3876470 0.86902000 1.00000 0.00000             
O2    core 0.8400085 0.6658145 0.8868101 0.86902000 1.00000 0.00000             
O2    core 0.3410774 0.1600625 0.3918829 0.86902000 1.00000 0.00000             
O2    core 0.3409009 0.1611997 0.8937443 0.86902000 1.00000 0.00000             
O2    core 0.1462065 0.6603690 0.0988303 0.86902000 1.00000 0.00000             
O2    core 0.1425601 0.6609165 0.5969283 0.86902000 1.00000 0.00000             
O2    core 0.6437311 0.1661675 0.1025052 0.86902000 1.00000 0.00000             
O2    core 0.6441129 0.1638242 0.6033496 0.86902000 1.00000 0.00000             
O2    core 0.8340356 0.8225931 0.1260513 0.86902000 1.00000 0.00000             
O2    core 0.8352198 0.8224506 0.6265440 0.86902000 1.00000 0.00000             
O2    core 0.3326061 0.3168399 0.1313791 0.86902000 1.00000 0.00000             
O2    core 0.3353306 0.3212725 0.6254913 0.86902000 1.00000 0.00000             
O2    core 0.1489267 0.8202123 0.3607086 0.86902000 1.00000 0.00000             
O2    core 0.1503627 0.8185260 0.8601145 0.86902000 1.00000 0.00000             
O2    core 0.6485627 0.3214085 0.3640527 0.86902000 1.00000 0.00000             
O2    core 0.6507668 0.3211427 0.8610367 0.86902000 1.00000 0.00000             
O2    core 0.1514028 0.1827513 0.3596994 0.86902000 1.00000 0.00000             
O2    core 0.1500306 0.1808324 0.8592317 0.86902000 1.00000 0.00000             
O2    core 0.6526803 0.6832625 0.3600439 0.86902000 1.00000 0.00000             
O2    core 0.6513218 0.6818169 0.8640922 0.86902000 1.00000 0.00000             
O2    core 0.8328495 0.1807280 0.1264832 0.86902000 1.00000 0.00000             
O2    core 0.8326164 0.1816632 0.6282202 0.86902000 1.00000 0.00000             
O2    core 0.3345710 0.6808110 0.1276852 0.86902000 1.00000 0.00000             
O2    core 0.3328718 0.6822112 0.6302813 0.86902000 1.00000 0.00000             
O2    core 0.0430269 0.5015434 0.1245809 0.86902000 1.00000 0.00000             
O2    core 0.0434141 0.4986246 0.6243790 0.86902000 1.00000 0.00000             
O2    core 0.5456835 0.0000018 0.1240060 0.86902000 1.00000 0.00000             
O2    core 0.5457329 0.9978841 0.6255292 0.86902000 1.00000 0.00000             
O2    core 0.9377360 0.4978081 0.3621347 0.86902000 1.00000 0.00000             
O2    core 0.9394489 0.5005464 0.8649484 0.86902000 1.00000 0.00000             
O2    core 0.4405176 0.9978813 0.3646009 0.86902000 1.00000 0.00000             
O2    core 0.4412999 0.0016656 0.8648921 0.86902000 1.00000 0.00000             
O2    core 0.9972276 0.3074993 0.3531257 0.86902000 1.00000 0.00000             
O2    core 0.0011335 0.3102105 0.8566973 0.86902000 1.00000 0.00000             
O2    core 0.4976007 0.8066280 0.3556284 0.86902000 1.00000 0.00000             
O2    core 0.4988224 0.8094932 0.8553534 0.86902000 1.00000 0.00000             
O2    core 0.9852788 0.3091772 0.1337243 0.86902000 1.00000 0.00000             
O2    core 0.9876892 0.3068548 0.6362625 0.86902000 1.00000 0.00000             
O2    core 0.4823097 0.8113609 0.1324160 0.86902000 1.00000 0.00000             
O2    core 0.4860307 0.8077449 0.6356559 0.86902000 1.00000 0.00000             
O2    core 0.9865684 0.6929824 0.1347693 0.86902000 1.00000 0.00000             
O2    core 0.9874870 0.6904874 0.6357958 0.86902000 1.00000 0.00000             
O2    core 0.4811170 0.1880791 0.1326972 0.86902000 1.00000 0.00000             
O2    core 0.4825092 0.1870139 0.6311076 0.86902000 1.00000 0.00000             
O2    core 0.0017094 0.6869241 0.3589898 0.86902000 1.00000 0.00000             
O2    core 0.0020964 0.6895897 0.8556563 0.86902000 1.00000 0.00000             
O2    core 0.4959015 0.1898678 0.3529178 0.86902000 1.00000 0.00000             
O2    core 0.4971135 0.1947629 0.8557853 0.86902000 1.00000 0.00000             
Ca    core 0.2733556 0.5055894 0.3658163 2.00000000 1.00000 0.00000             
Ca    core 0.2794154 0.4998885 0.8684764 2.00000000 1.00000 0.00000             
Ca    core 0.7698089 0.0079223 0.3655182 2.00000000 1.00000 0.00000             
Ca    core 0.7726260 0.0060898 0.8696097 2.00000000 1.00000 0.00000             
Ca    core 0.7135471 0.5038818 0.1187934 2.00000000 1.00000 0.00000             
Ca    core 0.7145610 0.5071446 0.6241274 2.00000000 1.00000 0.00000             
Ca    core 0.2066715 0.0019255 0.1227184 2.00000000 1.00000 0.00000             
Ca    core 0.2108684 0.0060225 0.6238881 2.00000000 1.00000 0.00000             
O1    core 0.6222634 0.5839715 0.1929723 1.25000000 1.00000 0.00000             
H     core 0.5887495 0.5426808 0.2270159 0.40000000 1.00000 0.00000             
H     core 0.6220913 0.6524814 0.2194493 0.40000000 1.00000 0.00000             
O1    core 0.0953910 0.1091925 0.1613500 1.25000000 1.00000 0.00000             
H     core 0.0898845 0.1071992 0.2250921 0.40000000 1.00000 0.00000             
H     core 0.0595060 0.1718620 0.1324403 0.40000000 1.00000 0.00000             
O1    core 0.0940845 0.1056268 0.6626191 1.25000000 1.00000 0.00000             
H     core 0.0869433 0.1015361 0.7255582 0.40000000 1.00000 0.00000             
H     core 0.0556017 0.1667383 0.6331694 0.40000000 1.00000 0.00000             
O1    core 0.3917102 0.6060440 0.3259640 1.25000000 1.00000 0.00000             
H     core 0.3950211 0.6068403 0.2613202 0.40000000 1.00000 0.00000             
H     core 0.4324483 0.6651431 0.3576568 0.40000000 1.00000 0.00000             
O1    core 0.8852633 0.1054235 0.3247718 1.25000000 1.00000 0.00000             
H     core 0.8948673 0.0989191 0.2631490 0.40000000 1.00000 0.00000             
H     core 0.9284046 0.1630322 0.3561934 0.40000000 1.00000 0.00000             
O1    core 0.3297324 0.3750266 0.3019938 1.25000000 1.00000 0.00000             
H     core 0.3726647 0.3775149 0.2644675 0.40000000 1.00000 0.00000             
H     core 0.2869053 0.3156892 0.2759696 0.40000000 1.00000 0.00000             
O1    core 0.8286556 0.8624001 0.3256866 1.25000000 1.00000 0.00000             
H     core 0.8763410 0.8198488 0.3759079 0.40000000 1.00000 0.00000             
H     core 0.7821726 0.8122644 0.2842949 0.40000000 1.00000 0.00000             
O1    core 0.8412391 0.8581671 0.8453197 1.25000000 1.00000 0.00000             
H     core 0.8838676 0.8095591 0.8922818 0.40000000 1.00000 0.00000             
H     core 0.7948138 0.8131996 0.7968273 0.40000000 1.00000 0.00000             
O1    core 0.6405712 0.3559033 0.1359001 1.25000000 1.00000 0.00000             
H     core 0.5907412 0.3108757 0.0915304 0.40000000 1.00000 0.00000             
H     core 0.6856466 0.3079078 0.1819532 0.40000000 1.00000 0.00000             
O1    core 0.6530959 0.3630248 0.6648110 1.25000000 1.00000 0.00000             
H     core 0.6046043 0.3208677 0.6148590 0.40000000 1.00000 0.00000             
H     core 0.6994007 0.3123852 0.7056588 0.40000000 1.00000 0.00000             
O1    core 0.1503082 0.8707436 0.1823909 1.25000000 1.00000 0.00000             
H     core 0.1008657 0.8669514 0.2123748 0.40000000 1.00000 0.00000             
H     core 0.1942558 0.8126543 0.2099105 0.40000000 1.00000 0.00000             
O1    core 0.1561672 0.8730363 0.6866553 1.25000000 1.00000 0.00000             
H     core 0.1126556 0.8742607 0.7235234 0.40000000 1.00000 0.00000             
H     core 0.1991718 0.8137644 0.7121244 0.40000000 1.00000 0.00000             
O1    core 0.5906017 0.5022812 0.4660438 1.25000000 1.00000 0.00000             
H     core 0.5570542 0.4353313 0.4494359 0.40000000 1.00000 0.00000             
H     core 0.5643571 0.5404273 0.4052586 0.40000000 1.00000 0.00000             
O1    core 0.5873410 0.5256640 0.9592862 1.25000000 1.00000 0.00000             
H     core 0.5621778 0.4801426 0.9028745 0.40000000 1.00000 0.00000             
H     core 0.5671887 0.5932547 0.9293847 0.40000000 1.00000 0.00000             
O1    core 0.0864139 0.9957234 0.4674715 1.25000000 1.00000 0.00000             
H     core 0.0470267 0.9323325 0.4588639 0.40000000 1.00000 0.00000             
H     core 0.0637801 0.0251121 0.4023889 0.40000000 1.00000 0.00000             
O1    core 0.0805299 0.9676251 0.9666809 1.25000000 1.00000 0.00000             
H     core 0.0631623 0.8956756 0.9488194 0.40000000 1.00000 0.00000             
H     core 0.0547029 0.0031945 0.9042213 0.40000000 1.00000 0.00000             
O1    core 0.4050712 0.5411129 0.0347512 1.25000000 1.00000 0.00000             
H     core 0.4197328 0.5057080 0.0966629 0.40000000 1.00000 0.00000             
H     core 0.4270828 0.6112403 0.0561686 0.40000000 1.00000 0.00000             
O1    core 0.3970779 0.4940307 0.5238030 1.25000000 1.00000 0.00000             
H     core 0.4321690 0.4277313 0.5355085 0.40000000 1.00000 0.00000             
H     core 0.4205167 0.5259608 0.5877882 0.40000000 1.00000 0.00000             
O1    core 0.8984063 0.0000024 0.0336930 1.25000000 1.00000 0.00000             
H     core 0.9205076 0.9404709 0.0768280 0.40000000 1.00000 0.00000             
H     core 0.9224809 0.0572242 0.0792644 0.40000000 1.00000 0.00000             
O1    core 0.8927428 0.0033574 0.5242443 1.25000000 1.00000 0.00000             
H     core 0.9244754 0.9359930 0.5440075 0.40000000 1.00000 0.00000             
H     core 0.9196118 0.0438063 0.5836817 0.40000000 1.00000 0.00000             
O1    core 0.8879746 0.1041274 0.8288559 1.25000000 1.00000 0.00000             
H     core 0.8960187 0.0983997 0.7664133 0.40000000 1.00000 0.00000             
H     core 0.9289193 0.1637983 0.8585132 0.40000000 1.00000 0.00000             
O1    core 0.3801675 0.6093869 0.8209160 1.25000000 1.00000 0.00000             
H     core 0.3903402 0.6059054 0.7594538 0.40000000 1.00000 0.00000             
H     core 0.4149074 0.6723722 0.8503810 0.40000000 1.00000 0.00000             
O1    core 0.5973727 0.6014784 0.6673051 1.25000000 1.00000 0.00000             
H     core 0.5556968 0.6607874 0.6381504 0.40000000 1.00000 0.00000             
H     core 0.5879458 0.5928179 0.7288467 0.40000000 1.00000 0.00000             
O1    core 0.9904185 0.8170147 0.5040228 1.25000000 1.00000 0.00000             
H     core 0.0221237 0.8032407 0.5732322 0.40000000 1.00000 0.00000             
H     core 0.9994911 0.7517093 0.4762151 0.40000000 1.00000 0.00000             
O1    core 0.3909665 0.3689095 0.8835120 1.25000000 1.00000 0.00000             
H     core 0.3926828 0.3036134 0.9166338 0.40000000 1.00000 0.00000             
H     core 0.4358916 0.3567269 0.8492729 0.40000000 1.00000 0.00000             
O1    core 0.4927960 0.3159529 0.4849554 1.25000000 1.00000 0.00000             
H     core 0.4838351 0.2507528 0.5130370 0.40000000 1.00000 0.00000             
H     core 0.4604904 0.3021966 0.4157981 0.40000000 1.00000 0.00000             
O1    core 0.9910344 0.9438709 0.2494747 1.25000000 1.00000 0.00000             
H     core 0.0353004 0.9000038 0.3005476 0.40000000 1.00000 0.00000             
H     core 0.9286065 0.9057377 0.2275595 0.40000000 1.00000 0.00000             
O1    core 0.9920779 0.9446776 0.7464099 1.25000000 1.00000 0.00000             
H     core 0.0285622 0.8920206 0.7927655 0.40000000 1.00000 0.00000             
H     core 0.9285620 0.9112651 0.7118857 0.40000000 1.00000 0.00000             
O1    core 0.4916939 0.4362292 0.2362459 1.25000000 1.00000 0.00000             
H     core 0.5506410 0.4008485 0.2797795 0.40000000 1.00000 0.00000             
H     core 0.4592050 0.3829712 0.1886322 0.40000000 1.00000 0.00000             
O1    core 0.4932212 0.4438445 0.7520820 1.25000000 1.00000 0.00000             
H     core 0.5524302 0.4025328 0.7621173 0.40000000 1.00000 0.00000             
H     core 0.4403749 0.4041206 0.7045092 0.40000000 1.00000 0.00000             
O2    shel 0.2578655 0.4991404 0.1038210 -2.8690199 1.00000 0.00000             
O2    shel 0.2559826 0.5015594 0.6048428 -2.8690199 1.00000 0.00000             
O2    shel 0.7511777 0.0021711 0.1063118 -2.8690199 1.00000 0.00000             
O2    shel 0.7532541 0.0019204 0.6064208 -2.8690199 1.00000 0.00000             
O2    shel 0.7291232 0.5017323 0.3851889 -2.8690199 1.00000 0.00000             
O2    shel 0.7318858 0.5019924 0.8834145 -2.8690199 1.00000 0.00000             
O2    shel 0.2275700 0.0014565 0.3858987 -2.8690199 1.00000 0.00000             
O2    shel 0.2279493 0.0003153 0.8843580 -2.8690199 1.00000 0.00000             
O2    shel 0.2031951 0.3767309 0.4624511 -2.8690199 1.00000 0.00000             
O2    shel 0.2080277 0.3724268 0.9642466 -2.8690199 1.00000 0.00000             
O2    shel 0.7028340 0.8775398 0.4636487 -2.8690199 1.00000 0.00000             
O2    shel 0.7025168 0.8777547 0.9641486 -2.8690199 1.00000 0.00000             
O2    shel 0.7809156 0.3761534 0.0244003 -2.8690199 1.00000 0.00000             
O2    shel 0.7819846 0.3761820 0.5264082 -2.8690199 1.00000 0.00000             
O2    shel 0.2776698 0.8745190 0.0253305 -2.8690199 1.00000 0.00000             
O2    shel 0.2791641 0.8751331 0.5264290 -2.8690199 1.00000 0.00000             
O2    shel 0.7825185 0.6272837 0.0256295 -2.8690199 1.00000 0.00000             
O2    shel 0.7812564 0.6288098 0.5256425 -2.8690199 1.00000 0.00000             
O2    shel 0.2749232 0.1249549 0.0259655 -2.8690199 1.00000 0.00000             
O2    shel 0.2772218 0.1275588 0.5268399 -2.8690199 1.00000 0.00000             
O2    shel 0.2071908 0.6272778 0.4630528 -2.8690199 1.00000 0.00000             
O2    shel 0.2069974 0.6245993 0.9625356 -2.8690199 1.00000 0.00000             
O2    shel 0.7016728 0.1273369 0.4641262 -2.8690199 1.00000 0.00000             
O2    shel 0.7019223 0.1273133 0.9640096 -2.8690199 1.00000 0.00000             
O2    shel 0.1352796 0.3781819 0.2656588 -2.8690199 1.00000 0.00000             
O2    shel 0.1376915 0.3789431 0.7672439 -2.8690199 1.00000 0.00000             
O2    shel 0.6338599 0.8764831 0.2661716 -2.8690199 1.00000 0.00000             
O2    shel 0.6379605 0.8760002 0.7673076 -2.8690199 1.00000 0.00000             
O2    shel 0.8459642 0.3756187 0.2209034 -2.8690199 1.00000 0.00000             
O2    shel 0.8502053 0.3773374 0.7231244 -2.8690199 1.00000 0.00000             
O2    shel 0.3462538 0.8753870 0.2234223 -2.8690199 1.00000 0.00000             
O2    shel 0.3488889 0.8783535 0.7234705 -2.8690199 1.00000 0.00000             
O2    shel 0.8496496 0.6251812 0.2216687 -2.8690199 1.00000 0.00000             
O2    shel 0.8497305 0.6250323 0.7221913 -2.8690199 1.00000 0.00000             
O2    shel 0.3446967 0.1201108 0.2227535 -2.8690199 1.00000 0.00000             
O2    shel 0.3472159 0.1243705 0.7239583 -2.8690199 1.00000 0.00000             
O2    shel 0.1375723 0.6250628 0.2658712 -2.8690199 1.00000 0.00000             
O2    shel 0.1389234 0.6219594 0.7659691 -2.8690199 1.00000 0.00000             
O2    shel 0.6337768 0.1246404 0.2671991 -2.8690199 1.00000 0.00000             
O2    shel 0.6335529 0.1231066 0.7681347 -2.8690199 1.00000 0.00000             
O2    shel 0.1469191 0.3487079 0.1023791 -2.8690199 1.00000 0.00000             
O2    shel 0.1489743 0.3476350 0.6033708 -2.8690199 1.00000 0.00000             
O2    shel 0.6483328 0.8453380 0.1053539 -2.8690199 1.00000 0.00000             
O2    shel 0.6493113 0.8454670 0.6046256 -2.8690199 1.00000 0.00000             
O2    shel 0.8339395 0.3460538 0.3840303 -2.8690199 1.00000 0.00000             
O2    shel 0.8366083 0.3462547 0.8843328 -2.8690199 1.00000 0.00000             
O2    shel 0.3348018 0.8471436 0.3864199 -2.8690199 1.00000 0.00000             
O2    shel 0.3364789 0.8482200 0.8860361 -2.8690199 1.00000 0.00000             
O2    shel 0.8383947 0.6541948 0.3848913 -2.8690199 1.00000 0.00000             
O2    shel 0.8379548 0.6572115 0.8844020 -2.8690199 1.00000 0.00000             
O2    shel 0.3382559 0.1515944 0.3885174 -2.8690199 1.00000 0.00000             
O2    shel 0.3382206 0.1531813 0.8901934 -2.8690199 1.00000 0.00000             
O2    shel 0.1485891 0.6518484 0.1018706 -2.8690199 1.00000 0.00000             
O2    shel 0.1454786 0.6523789 0.6003761 -2.8690199 1.00000 0.00000             
O2    shel 0.6458099 0.1574227 0.1049613 -2.8690199 1.00000 0.00000             
O2    shel 0.6462528 0.1550555 0.6058599 -2.8690199 1.00000 0.00000             
O2    shel 0.8254670 0.8216019 0.1205118 -2.8690199 1.00000 0.00000             
O2    shel 0.8266908 0.8214685 0.6209706 -2.8690199 1.00000 0.00000             
O2    shel 0.3245132 0.3161190 0.1252431 -2.8690199 1.00000 0.00000             
O2    shel 0.3267141 0.3202031 0.6200208 -2.8690199 1.00000 0.00000             
O2    shel 0.1572024 0.8192852 0.3665028 -2.8690199 1.00000 0.00000             
O2    shel 0.1585184 0.8177922 0.8658218 -2.8690199 1.00000 0.00000             
O2    shel 0.6569512 0.3204541 0.3694429 -2.8690199 1.00000 0.00000             
O2    shel 0.6592698 0.3201855 0.8669128 -2.8690199 1.00000 0.00000             
O2    shel 0.1599872 0.1834311 0.3660839 -2.8690199 1.00000 0.00000             
O2    shel 0.1589847 0.1816133 0.8657139 -2.8690199 1.00000 0.00000             
O2    shel 0.6611292 0.6840267 0.3661520 -2.8690199 1.00000 0.00000             
O2    shel 0.6600975 0.6827447 0.8697487 -2.8690199 1.00000 0.00000             
O2    shel 0.8239582 0.1817232 0.1206551 -2.8690199 1.00000 0.00000             
O2    shel 0.8238804 0.1825151 0.6222182 -2.8690199 1.00000 0.00000             
O2    shel 0.3258119 0.6816476 0.1216569 -2.8690199 1.00000 0.00000             
O2    shel 0.3242648 0.6829498 0.6238983 -2.8690199 1.00000 0.00000             
O2    shel 0.0499732 0.5014623 0.1310658 -2.8690199 1.00000 0.00000             
O2    shel 0.0505967 0.4989482 0.6311652 -2.8690199 1.00000 0.00000             
O2    shel 0.5518697 0.0003560 0.1308895 -2.8690199 1.00000 0.00000             
O2    shel 0.5523048 0.9982396 0.6323606 -2.8690199 1.00000 0.00000             
O2    shel 0.9311476 0.4981811 0.3555159 -2.8690199 1.00000 0.00000             
O2    shel 0.9330752 0.5008302 0.8581170 -2.8690199 1.00000 0.00000             
O2    shel 0.4333434 0.9981353 0.3579407 -2.8690199 1.00000 0.00000             
O2    shel 0.4343091 0.0017055 0.8583416 -2.8690199 1.00000 0.00000             
O2    shel 0.9943272 0.3156822 0.3508986 -2.8690199 1.00000 0.00000             
O2    shel 0.9981687 0.3182368 0.8540581 -2.8690199 1.00000 0.00000             
O2    shel 0.4948346 0.8148855 0.3533703 -2.8690199 1.00000 0.00000             
O2    shel 0.4961602 0.8177050 0.8531140 -2.8690199 1.00000 0.00000             
O2    shel 0.9878657 0.3173336 0.1359342 -2.8690199 1.00000 0.00000             
O2    shel 0.9903441 0.3151184 0.6382766 -2.8690199 1.00000 0.00000             
O2    shel 0.4853031 0.8194698 0.1350777 -2.8690199 1.00000 0.00000             
O2    shel 0.4889402 0.8159168 0.6378753 -2.8690199 1.00000 0.00000             
O2    shel 0.9890402 0.6845168 0.1368550 -2.8690199 1.00000 0.00000             
O2    shel 0.9899298 0.6825451 0.6376823 -2.8690199 1.00000 0.00000             
O2    shel 0.4840295 0.1800403 0.1353432 -2.8690199 1.00000 0.00000             
O2    shel 0.4854074 0.1793467 0.6338992 -2.8690199 1.00000 0.00000             
O2    shel 0.9988382 0.6792807 0.3561213 -2.8690199 1.00000 0.00000             
O2    shel 0.9992134 0.6813813 0.8531455 -2.8690199 1.00000 0.00000             
O2    shel 0.4934625 0.1818124 0.3511309 -2.8690199 1.00000 0.00000             
O2    shel 0.4946312 0.1863337 0.8535697 -2.8690199 1.00000 0.00000             
O1    shel 0.6218870 0.5842018 0.1941558 -2.0499999 1.00000 0.00000             
O1    shel 0.0947131 0.1103279 0.1620368 -2.0499999 1.00000 0.00000             
O1    shel 0.0933114 0.1066868 0.6632888 -2.0499999 1.00000 0.00000             
O1    shel 0.3924670 0.6072301 0.3252866 -2.0499999 1.00000 0.00000             
O1    shel 0.8862173 0.1062921 0.3242056 -2.0499999 1.00000 0.00000             
O1    shel 0.3294834 0.3743551 0.3006583 -2.0499999 1.00000 0.00000             
O1    shel 0.8283912 0.8607754 0.3263242 -2.0499999 1.00000 0.00000             
O1    shel 0.8407652 0.8565187 0.8455553 -2.0499999 1.00000 0.00000             
O1    shel 0.6408229 0.3542728 0.1357578 -2.0499999 1.00000 0.00000             
O1    shel 0.6533527 0.3613822 0.6641541 -2.0499999 1.00000 0.00000             
O1    shel 0.1505016 0.8700367 0.1836401 -2.0499999 1.00000 0.00000             
O1    shel 0.1563629 0.8723344 0.6879995 -2.0499999 1.00000 0.00000             
O1    shel 0.5894300 0.5014283 0.4645580 -2.0499999 1.00000 0.00000             
O1    shel 0.5866384 0.5262483 0.9575082 -2.0499999 1.00000 0.00000             
O1    shel 0.0852014 0.9947150 0.4661062 -2.0499999 1.00000 0.00000             
O1    shel 0.0798422 0.9666553 0.9649984 -2.0499999 1.00000 0.00000             
O1    shel 0.4056643 0.5419875 0.0366220 -2.0499999 1.00000 0.00000             
O1    shel 0.3981978 0.4930534 0.5252350 -2.0499999 1.00000 0.00000             
O1    shel 0.8991960 0.9999875 0.0355667 -2.0499999 1.00000 0.00000             
O1    shel 0.8938604 0.0025455 0.5257561 -2.0499999 1.00000 0.00000             
O1    shel 0.8888011 0.1050816 0.8282176 -2.0499999 1.00000 0.00000             
O1    shel 0.3809819 0.6104407 0.8203978 -2.0499999 1.00000 0.00000             
O1    shel 0.5964412 0.6023936 0.6679304 -2.0499999 1.00000 0.00000             
O1    shel 0.9916004 0.8151528 0.5051286 -2.0499999 1.00000 0.00000             
O1    shel 0.3916553 0.3675464 0.8833902 -2.0499999 1.00000 0.00000             
O1    shel 0.4916069 0.3140767 0.4838515 -2.0499999 1.00000 0.00000             
O1    shel 0.9905407 0.9413168 0.2504264 -2.0499999 1.00000 0.00000             
O1    shel 0.9913409 0.9419820 0.7468583 -2.0499999 1.00000 0.00000             
O1    shel 0.4925262 0.4336196 0.2360367 -2.0499999 1.00000 0.00000             
O1    shel 0.4933843 0.4413632 0.7509851 -2.0499999 1.00000 0.00000             
totalenergy         -5984.0744295180 eV
pressure         0.500
species   8
Al     core    3.000000                  
Si     core    4.000000                  
O2     core    0.869020                  
O2     shel   -2.869020                  
Ca     core    2.000000                  
H      core    0.400000                  
O1     core    1.250000                  
O1     shel   -2.050000                  
buck     
Ca    core O2    shel  1090.40000     0.343700  0.000000      0.00 16.00
buck     
Ca    core O1    shel  435.070000     0.343700  0.000000      0.00 16.00
buck     
Al    core O2    shel  1460.30000     0.299120  0.000000      0.00 16.00
buck     
Al    core O1    shel  1460.30000     0.299120  0.000000      0.00 16.00
buck     
Si    core O2    shel  1283.90700     0.320520  10.66200      0.00 16.00
buck     
Si    core O1    shel  1283.90700     0.320520  10.66200      0.00 16.00
buck     
O2    shel O2    shel  22764.3000     0.149000  27.88000      0.00 16.00
buck     
O1    shel O2    shel  22764.3000     0.149000  28.92000      0.00 16.00
buck inter     
H     core O1    shel  396.270000     0.250000  10.00000      0.00 20.00
buck     
H     core O2    shel  396.270000     0.250000  0.000000      0.00 10.00
spring
O1     209.44960    
spring
O2     74.920000    
morse intra     
H     core O1    shel 6.2037100     2.2200      0.92376  0.5000  0.000  1.100
morse intra     
H     core H     core 0.0000000     2.8405      1.50000  0.5000  0.000  1.650
lennard 12  6     
O1    shel O1    shel  39344.980      42.150000      0.000 20.000
three intra regular  
O1    shel H     core H     core 4.1998      108.69000 &
  0.000  1.500  0.000  1.500  0.000  2.000
three       regular  
Al    core O2    shel O2    shel 2.0972      109.47000 &
  0.000  1.900  0.000  1.900  0.000  3.500
three       regular  
Si    core O2    shel O2    shel 2.0972      109.47000 &
  0.000  1.900  0.000  1.900  0.000  4.000
nobond Al    core Si    core
nobond O2    core Si    core
nobond Si    core O2    shel
nobond Si    core Ca    core
nobond H     core Si    core
nobond O1    core Si    core
nobond Si    core O1    shel
nobond O2    core Al    core
nobond Al    core O2    shel
nobond Al    core Ca    core
nobond H     core Al    core
nobond O1    core Al    core
nobond Al    core O1    shel
nobond O2    core O2    shel
nobond O2    core Ca    core
nobond H     core O2    core
nobond O1    core O2    core
nobond O2    core O1    shel
nobond Ca    core O2    shel
nobond H     core O2    shel
nobond O1    core O2    shel
nobond O1    shel O2    shel
nobond H     core Ca    core
nobond O1    core Ca    core
nobond Ca    core O1    shel
stepmx opt     0.050000
maxcyc fit    10000
switch_min rfo   gnorm     0.005000
dump every      1 lau05_N24.dump                                              
output xtl lau05_N24.xtl                                               
