
 *** Local logger file of MPI task 2 in communicator 0 ***
 *** PID      = 9219
 *** Hostname = node3                                                                                                                                                                                                                                                                                                                                                                                                                                                                                                                                                                                                                                                                                                                                                                                                                                                                                                                                                                                                                                                           

 ===== Routine Calling Stack ===== 

           13 cp_fm_cholesky_decompose
           12 make_full_inverse_cholesky
           11 make_preconditioner
           10 prepare_preconditioner
            9 init_scf_loop
            8 scf_env_do_scf
            7 qs_energies_scf
            6 qs_forces
            5 cp_eval_at
            4 cp_cg_main
            3 geoopt_cg
            2 cp_cell_opt
            1 CP2K

 **********************************************************************
 *** 11:23:15 ERRORL2 in cp_fm_cholesky:cp_fm_cholesky_decompose :: ***
 *** condition FAILED at line 100                                   ***
 **********************************************************************

